{
  "version": "graphviz-2.47.3",
  "archives": [
    {
      "format": "gz",
      "url": "https://gitlab.com/api/v4/projects/4207231/packages/generic/graphviz-releases/2.47.3/graphviz-2.47.3.tar.gz",
      "md5": "https://gitlab.com/api/v4/projects/4207231/packages/generic/graphviz-releases/2.47.3/graphviz-2.47.3.tar.gz.md5",
      "sha256": "https://gitlab.com/api/v4/projects/4207231/packages/generic/graphviz-releases/2.47.3/graphviz-2.47.3.tar.gz.sha256"
    },
    {
      "format": "xz",
      "url": "https://gitlab.com/api/v4/projects/4207231/packages/generic/graphviz-releases/2.47.3/graphviz-2.47.3.tar.xz",
      "md5": "https://gitlab.com/api/v4/projects/4207231/packages/generic/graphviz-releases/2.47.3/graphviz-2.47.3.tar.xz.md5",
      "sha256": "https://gitlab.com/api/v4/projects/4207231/packages/generic/graphviz-releases/2.47.3/graphviz-2.47.3.tar.xz.sha256"
    }
  ]
}