<?xml version="1.0" encoding="UTF-8" standalone="no"?>
<!DOCTYPE svg PUBLIC "-//W3C//DTD SVG 1.1//EN"
 "http://www.w3.org/Graphics/SVG/1.1/DTD/svg11.dtd">
<!-- Generated by graphviz version 2.44.1 (20200629.0846)
 -->
<!-- Title: ninja Pages: 1 -->
<svg width="1441pt" height="1282pt"
 viewBox="0.00 0.00 1440.79 1281.50" xmlns="http://www.w3.org/2000/svg" xmlns:xlink="http://www.w3.org/1999/xlink">
<g id="graph0" class="graph" transform="scale(1 1) rotate(0) translate(4 1277.5)">
<title>ninja</title>
<polygon fill="white" stroke="transparent" points="-4,4 -4,-1277.5 1436.79,-1277.5 1436.79,4 -4,4"/>
<!-- 0x7fe58d50f070 -->
<g id="node1" class="node">
<title>0x7fe58d50f070</title>
<polygon fill="none" stroke="black" points="1432.79,-470 1378.79,-470 1378.79,-451 1432.79,-451 1432.79,-470"/>
<text text-anchor="middle" x="1405.79" y="-458" font-family="Times,serif" font-size="10.00">all</text>
</g>
<!-- 0x7fe58d50eeb0 -->
<g id="node2" class="node">
<title>0x7fe58d50eeb0</title>
<ellipse fill="none" stroke="black" cx="1311.39" cy="-460.5" rx="30.31" ry="13.37"/>
<text text-anchor="middle" x="1311.39" y="-458" font-family="Times,serif" font-size="10.00">phony</text>
</g>
<!-- 0x7fe58d50eeb0&#45;&gt;0x7fe58d50f070 -->
<g id="edge1" class="edge">
<title>0x7fe58d50eeb0&#45;&gt;0x7fe58d50f070</title>
<path fill="none" stroke="black" d="M1341.88,-460.5C1350.38,-460.5 1359.76,-460.5 1368.62,-460.5"/>
<polygon fill="black" stroke="black" points="1368.7,-464 1378.7,-460.5 1368.7,-457 1368.7,-464"/>
</g>
<!-- 0x7fe58d5092d0 -->
<g id="node3" class="node">
<title>0x7fe58d5092d0</title>
<polygon fill="none" stroke="black" points="1212.98,-579 1158.98,-579 1158.98,-560 1212.98,-560 1212.98,-579"/>
<text text-anchor="middle" x="1185.98" y="-567" font-family="Times,serif" font-size="10.00">ninja</text>
</g>
<!-- 0x7fe58d5092d0&#45;&gt;0x7fe58d50eeb0 -->
<g id="edge2" class="edge">
<title>0x7fe58d5092d0&#45;&gt;0x7fe58d50eeb0</title>
<path fill="none" stroke="black" d="M1213.16,-561.67C1223.4,-557.82 1234.86,-552.48 1243.98,-545.5 1270.46,-525.25 1292.22,-492.06 1303.02,-473.72"/>
</g>
<!-- 0x7fe58d50b640 -->
<g id="node4" class="node">
<title>0x7fe58d50b640</title>
<polygon fill="none" stroke="black" points="1214.48,-759 1157.48,-759 1157.48,-740 1214.48,-740 1214.48,-759"/>
<text text-anchor="middle" x="1185.98" y="-747" font-family="Times,serif" font-size="10.00">ninja_test</text>
</g>
<!-- 0x7fe58d50b640&#45;&gt;0x7fe58d50eeb0 -->
<g id="edge3" class="edge">
<title>0x7fe58d50b640&#45;&gt;0x7fe58d50eeb0</title>
<path fill="none" stroke="black" d="M1191.09,-739.88C1209.41,-696.99 1283.69,-523.02 1304.78,-473.63"/>
</g>
<!-- 0x7fe58d50bc10 -->
<g id="node5" class="node">
<title>0x7fe58d50bc10</title>
<polygon fill="none" stroke="black" points="1231.98,-536 1139.98,-536 1139.98,-517 1231.98,-517 1231.98,-536"/>
<text text-anchor="middle" x="1185.98" y="-524" font-family="Times,serif" font-size="10.00">build_log_perftest</text>
</g>
<!-- 0x7fe58d50bc10&#45;&gt;0x7fe58d50eeb0 -->
<g id="edge4" class="edge">
<title>0x7fe58d50bc10&#45;&gt;0x7fe58d50eeb0</title>
<path fill="none" stroke="black" d="M1213.56,-516.99C1223.31,-513.19 1234.32,-508.52 1243.98,-503.5 1262.14,-494.07 1281.66,-481.05 1294.8,-471.81"/>
</g>
<!-- 0x7fe58d508820 -->
<g id="node6" class="node">
<title>0x7fe58d508820</title>
<polygon fill="none" stroke="black" points="1224.48,-494 1147.48,-494 1147.48,-475 1224.48,-475 1224.48,-494"/>
<text text-anchor="middle" x="1185.98" y="-482" font-family="Times,serif" font-size="10.00">canon_perftest</text>
</g>
<!-- 0x7fe58d508820&#45;&gt;0x7fe58d50eeb0 -->
<g id="edge5" class="edge">
<title>0x7fe58d508820&#45;&gt;0x7fe58d50eeb0</title>
<path fill="none" stroke="black" d="M1224.68,-477.17C1243.53,-473.5 1265.93,-469.15 1283.1,-465.81"/>
</g>
<!-- 0x7fe58d50c0a0 -->
<g id="node7" class="node">
<title>0x7fe58d50c0a0</title>
<polygon fill="none" stroke="black" points="1240.48,-374 1131.48,-374 1131.48,-355 1240.48,-355 1240.48,-374"/>
<text text-anchor="middle" x="1185.98" y="-362" font-family="Times,serif" font-size="10.00">depfile_parser_perftest</text>
</g>
<!-- 0x7fe58d50c0a0&#45;&gt;0x7fe58d50eeb0 -->
<g id="edge6" class="edge">
<title>0x7fe58d50c0a0&#45;&gt;0x7fe58d50eeb0</title>
<path fill="none" stroke="black" d="M1216.35,-374.08C1225.63,-377.82 1235.63,-382.64 1243.98,-388.5 1267.92,-405.31 1289.67,-432.03 1301.36,-447.76"/>
</g>
<!-- 0x7fe58d50c470 -->
<g id="node8" class="node">
<title>0x7fe58d50c470</title>
<polygon fill="none" stroke="black" points="1239.48,-455 1132.48,-455 1132.48,-436 1239.48,-436 1239.48,-455"/>
<text text-anchor="middle" x="1185.98" y="-443" font-family="Times,serif" font-size="10.00">hash_collision_bench</text>
</g>
<!-- 0x7fe58d50c470&#45;&gt;0x7fe58d50eeb0 -->
<g id="edge7" class="edge">
<title>0x7fe58d50c470&#45;&gt;0x7fe58d50eeb0</title>
<path fill="none" stroke="black" d="M1239.68,-451.9C1254.09,-453.66 1269.17,-455.49 1281.69,-457.01"/>
</g>
<!-- 0x7fe58d50c880 -->
<g id="node9" class="node">
<title>0x7fe58d50c880</title>
<polygon fill="none" stroke="black" points="1243.98,-334 1127.98,-334 1127.98,-315 1243.98,-315 1243.98,-334"/>
<text text-anchor="middle" x="1185.98" y="-322" font-family="Times,serif" font-size="10.00">manifest_parser_perftest</text>
</g>
<!-- 0x7fe58d50c880&#45;&gt;0x7fe58d50eeb0 -->
<g id="edge8" class="edge">
<title>0x7fe58d50c880&#45;&gt;0x7fe58d50eeb0</title>
<path fill="none" stroke="black" d="M1222.79,-334.08C1230.33,-337.21 1237.85,-341.27 1243.98,-346.5 1276.93,-374.58 1297.42,-423.34 1305.89,-446.93"/>
</g>
<!-- 0x7fe58d50cc10 -->
<g id="node10" class="node">
<title>0x7fe58d50cc10</title>
<polygon fill="none" stroke="black" points="1227.48,-416 1144.48,-416 1144.48,-397 1227.48,-397 1227.48,-416"/>
<text text-anchor="middle" x="1185.98" y="-404" font-family="Times,serif" font-size="10.00">clparser_perftest</text>
</g>
<!-- 0x7fe58d50cc10&#45;&gt;0x7fe58d50eeb0 -->
<g id="edge9" class="edge">
<title>0x7fe58d50cc10&#45;&gt;0x7fe58d50eeb0</title>
<path fill="none" stroke="black" d="M1214.76,-416.05C1224.13,-419.45 1234.59,-423.45 1243.98,-427.5 1260.18,-434.48 1278.06,-443.44 1291.18,-450.26"/>
</g>
<!-- 0x7fe58d509260 -->
<g id="node11" class="node">
<title>0x7fe58d509260</title>
<ellipse fill="none" stroke="black" cx="1063.98" cy="-576.5" rx="27" ry="13.37"/>
<text text-anchor="middle" x="1063.98" y="-574" font-family="Times,serif" font-size="10.00">link</text>
</g>
<!-- 0x7fe58d509260&#45;&gt;0x7fe58d5092d0 -->
<g id="edge10" class="edge">
<title>0x7fe58d509260&#45;&gt;0x7fe58d5092d0</title>
<path fill="none" stroke="black" d="M1091.02,-574.98C1107.81,-574 1129.89,-572.71 1148.42,-571.63"/>
<polygon fill="black" stroke="black" points="1148.8,-575.12 1158.58,-571.04 1148.39,-568.13 1148.8,-575.12"/>
</g>
<!-- 0x7fe58d508ef0 -->
<g id="node12" class="node">
<title>0x7fe58d508ef0</title>
<polygon fill="none" stroke="black" points="960.98,-606 890.98,-606 890.98,-587 960.98,-587 960.98,-606"/>
<text text-anchor="middle" x="925.98" y="-594" font-family="Times,serif" font-size="10.00">build/ninja.o</text>
</g>
<!-- 0x7fe58d508ef0&#45;&gt;0x7fe58d509260 -->
<g id="edge11" class="edge">
<title>0x7fe58d508ef0&#45;&gt;0x7fe58d509260</title>
<path fill="none" stroke="black" d="M961.3,-591.45C985.07,-587.96 1016.17,-583.38 1037.69,-580.22"/>
</g>
<!-- 0x7fe58d508f80 -->
<g id="node13" class="node">
<title>0x7fe58d508f80</title>
<polygon fill="none" stroke="black" points="965.98,-463 885.98,-463 885.98,-444 965.98,-444 965.98,-463"/>
<text text-anchor="middle" x="925.98" y="-451" font-family="Times,serif" font-size="10.00">build/libninja.a</text>
</g>
<!-- 0x7fe58d508f80&#45;&gt;0x7fe58d509260 -->
<g id="edge12" class="edge">
<title>0x7fe58d508f80&#45;&gt;0x7fe58d509260</title>
<path fill="none" stroke="black" d="M947.48,-463.11C963.07,-471.09 984.42,-483.54 999.98,-498.5 1021.22,-518.91 1017.57,-531.34 1036.98,-553.5 1040.56,-557.58 1044.83,-561.63 1048.87,-565.18"/>
</g>
<!-- 0x7fe58d50b5c0 -->
<g id="node71" class="node">
<title>0x7fe58d50b5c0</title>
<ellipse fill="none" stroke="black" cx="1063.98" cy="-910.5" rx="27" ry="13.37"/>
<text text-anchor="middle" x="1063.98" y="-908" font-family="Times,serif" font-size="10.00">link</text>
</g>
<!-- 0x7fe58d508f80&#45;&gt;0x7fe58d50b5c0 -->
<g id="edge89" class="edge">
<title>0x7fe58d508f80&#45;&gt;0x7fe58d50b5c0</title>
<path fill="none" stroke="black" d="M953.41,-463.09C969.48,-470.32 988.97,-481.87 999.98,-498.5 1044.94,-566.36 1059.54,-833.2 1062.41,-896.82"/>
</g>
<!-- 0x7fe58d50bba0 -->
<g id="node108" class="node">
<title>0x7fe58d50bba0</title>
<ellipse fill="none" stroke="black" cx="1063.98" cy="-531.5" rx="27" ry="13.37"/>
<text text-anchor="middle" x="1063.98" y="-529" font-family="Times,serif" font-size="10.00">link</text>
</g>
<!-- 0x7fe58d508f80&#45;&gt;0x7fe58d50bba0 -->
<g id="edge110" class="edge">
<title>0x7fe58d508f80&#45;&gt;0x7fe58d50bba0</title>
<path fill="none" stroke="black" d="M943.66,-463.06C969.48,-477.87 1018.9,-506.21 1045.31,-521.36"/>
</g>
<!-- 0x7fe58d5087b0 -->
<g id="node111" class="node">
<title>0x7fe58d5087b0</title>
<ellipse fill="none" stroke="black" cx="1063.98" cy="-486.5" rx="27" ry="13.37"/>
<text text-anchor="middle" x="1063.98" y="-484" font-family="Times,serif" font-size="10.00">link</text>
</g>
<!-- 0x7fe58d508f80&#45;&gt;0x7fe58d5087b0 -->
<g id="edge114" class="edge">
<title>0x7fe58d508f80&#45;&gt;0x7fe58d5087b0</title>
<path fill="none" stroke="black" d="M966.32,-463.04C990.01,-468.79 1019.38,-475.92 1039.49,-480.8"/>
</g>
<!-- 0x7fe58d50c030 -->
<g id="node114" class="node">
<title>0x7fe58d50c030</title>
<ellipse fill="none" stroke="black" cx="1063.98" cy="-351.5" rx="27" ry="13.37"/>
<text text-anchor="middle" x="1063.98" y="-349" font-family="Times,serif" font-size="10.00">link</text>
</g>
<!-- 0x7fe58d508f80&#45;&gt;0x7fe58d50c030 -->
<g id="edge118" class="edge">
<title>0x7fe58d508f80&#45;&gt;0x7fe58d50c030</title>
<path fill="none" stroke="black" d="M946.07,-443.89C961.28,-435.85 982.8,-423.62 999.98,-410.5 1018.22,-396.58 1020.16,-390.11 1036.98,-374.5 1041.05,-370.73 1045.55,-366.7 1049.65,-363.08"/>
</g>
<!-- 0x7fe58d50c400 -->
<g id="node117" class="node">
<title>0x7fe58d50c400</title>
<ellipse fill="none" stroke="black" cx="1063.98" cy="-441.5" rx="27" ry="13.37"/>
<text text-anchor="middle" x="1063.98" y="-439" font-family="Times,serif" font-size="10.00">link</text>
</g>
<!-- 0x7fe58d508f80&#45;&gt;0x7fe58d50c400 -->
<g id="edge122" class="edge">
<title>0x7fe58d508f80&#45;&gt;0x7fe58d50c400</title>
<path fill="none" stroke="black" d="M966.32,-450.03C989.07,-448.02 1017.06,-445.55 1037.05,-443.79"/>
</g>
<!-- 0x7fe58d50c810 -->
<g id="node120" class="node">
<title>0x7fe58d50c810</title>
<ellipse fill="none" stroke="black" cx="1063.98" cy="-306.5" rx="27" ry="13.37"/>
<text text-anchor="middle" x="1063.98" y="-304" font-family="Times,serif" font-size="10.00">link</text>
</g>
<!-- 0x7fe58d508f80&#45;&gt;0x7fe58d50c810 -->
<g id="edge126" class="edge">
<title>0x7fe58d508f80&#45;&gt;0x7fe58d50c810</title>
<path fill="none" stroke="black" d="M950.89,-443.97C966.53,-436.73 986.49,-425.47 999.98,-410.5 1026.48,-381.1 1013.43,-361.3 1036.98,-329.5 1040.14,-325.24 1044.2,-321.19 1048.17,-317.71"/>
</g>
<!-- 0x7fe58d50cba0 -->
<g id="node123" class="node">
<title>0x7fe58d50cba0</title>
<ellipse fill="none" stroke="black" cx="1063.98" cy="-396.5" rx="27" ry="13.37"/>
<text text-anchor="middle" x="1063.98" y="-394" font-family="Times,serif" font-size="10.00">link</text>
</g>
<!-- 0x7fe58d508f80&#45;&gt;0x7fe58d50cba0 -->
<g id="edge130" class="edge">
<title>0x7fe58d508f80&#45;&gt;0x7fe58d50cba0</title>
<path fill="none" stroke="black" d="M949.75,-443.96C975.76,-433.06 1017.93,-415.38 1042.81,-404.95"/>
</g>
<!-- 0x7fe58d508c50 -->
<g id="node14" class="node">
<title>0x7fe58d508c50</title>
<polygon fill="none" stroke="black" points="758.98,-606 695.98,-606 695.98,-587 758.98,-587 758.98,-606"/>
<text text-anchor="middle" x="727.48" y="-594" font-family="Times,serif" font-size="10.00">src/ninja.cc</text>
</g>
<!-- 0x7fe58d508c50&#45;&gt;0x7fe58d508ef0 -->
<g id="edge13" class="edge">
<title>0x7fe58d508c50&#45;&gt;0x7fe58d508ef0</title>
<path fill="none" stroke="black" d="M759.19,-596.5C791.84,-596.5 843.8,-596.5 880.84,-596.5"/>
<polygon fill="black" stroke="black" points="880.87,-600 890.87,-596.5 880.87,-593 880.87,-600"/>
<text text-anchor="middle" x="824.98" y="-599.5" font-family="Times,serif" font-size="10.00"> cxx</text>
</g>
<!-- 0x7fe58d508e00 -->
<g id="node15" class="node">
<title>0x7fe58d508e00</title>
<ellipse fill="none" stroke="black" cx="727.48" cy="-453.5" rx="27" ry="13.37"/>
<text text-anchor="middle" x="727.48" y="-451" font-family="Times,serif" font-size="10.00">ar</text>
</g>
<!-- 0x7fe58d508e00&#45;&gt;0x7fe58d508f80 -->
<g id="edge14" class="edge">
<title>0x7fe58d508e00&#45;&gt;0x7fe58d508f80</title>
<path fill="none" stroke="black" d="M754.58,-453.5C785.3,-453.5 837.02,-453.5 875.43,-453.5"/>
<polygon fill="black" stroke="black" points="875.89,-457 885.89,-453.5 875.89,-450 875.89,-457"/>
</g>
<!-- 0x7fe58d505cb0 -->
<g id="node16" class="node">
<title>0x7fe58d505cb0</title>
<polygon fill="none" stroke="black" points="599.48,-909 521.48,-909 521.48,-890 599.48,-890 599.48,-909"/>
<text text-anchor="middle" x="560.48" y="-897" font-family="Times,serif" font-size="10.00">build/browse.o</text>
</g>
<!-- 0x7fe58d505cb0&#45;&gt;0x7fe58d508e00 -->
<g id="edge15" class="edge">
<title>0x7fe58d505cb0&#45;&gt;0x7fe58d508e00</title>
<path fill="none" stroke="black" d="M599.56,-892.8C607.22,-889.85 614.58,-885.61 619.98,-879.5 647.08,-848.89 633.48,-830.01 638.98,-789.5 643.34,-757.4 640.63,-526.47 656.98,-498.5 667.65,-480.26 688.98,-468.13 705.21,-461.11"/>
</g>
<!-- 0x7fe58d505e40 -->
<g id="node17" class="node">
<title>0x7fe58d505e40</title>
<polygon fill="none" stroke="black" points="595.98,-870 524.98,-870 524.98,-851 595.98,-851 595.98,-870"/>
<text text-anchor="middle" x="560.48" y="-858" font-family="Times,serif" font-size="10.00">build/build.o</text>
</g>
<!-- 0x7fe58d505e40&#45;&gt;0x7fe58d508e00 -->
<g id="edge16" class="edge">
<title>0x7fe58d505e40&#45;&gt;0x7fe58d508e00</title>
<path fill="none" stroke="black" d="M596.19,-855.9C604.93,-853.24 613.62,-849.06 619.98,-842.5 642.14,-819.68 633.69,-804.87 638.98,-773.5 649.16,-713.11 625.98,-551.32 656.98,-498.5 667.68,-480.28 689.01,-468.14 705.23,-461.12"/>
</g>
<!-- 0x7fe58d506020 -->
<g id="node18" class="node">
<title>0x7fe58d506020</title>
<polygon fill="none" stroke="black" points="604.98,-833 515.98,-833 515.98,-814 604.98,-814 604.98,-833"/>
<text text-anchor="middle" x="560.48" y="-821" font-family="Times,serif" font-size="10.00">build/build_log.o</text>
</g>
<!-- 0x7fe58d506020&#45;&gt;0x7fe58d508e00 -->
<g id="edge17" class="edge">
<title>0x7fe58d506020&#45;&gt;0x7fe58d508e00</title>
<path fill="none" stroke="black" d="M604.99,-815.72C610.58,-813.21 615.8,-809.88 619.98,-805.5 667.41,-755.78 621.85,-557.56 656.98,-498.5 667.71,-480.46 688.81,-468.36 704.96,-461.29"/>
</g>
<!-- 0x7fe58d5061e0 -->
<g id="node19" class="node">
<title>0x7fe58d5061e0</title>
<polygon fill="none" stroke="black" points="595.98,-796 524.98,-796 524.98,-777 595.98,-777 595.98,-796"/>
<text text-anchor="middle" x="560.48" y="-784" font-family="Times,serif" font-size="10.00">build/clean.o</text>
</g>
<!-- 0x7fe58d5061e0&#45;&gt;0x7fe58d508e00 -->
<g id="edge18" class="edge">
<title>0x7fe58d5061e0&#45;&gt;0x7fe58d508e00</title>
<path fill="none" stroke="black" d="M596.1,-782.2C604.94,-779.54 613.71,-775.29 619.98,-768.5 661.09,-724.03 625.5,-550.24 656.98,-498.5 667.89,-480.57 688.96,-468.46 705.06,-461.35"/>
</g>
<!-- 0x7fe58d5063d0 -->
<g id="node20" class="node">
<title>0x7fe58d5063d0</title>
<polygon fill="none" stroke="black" points="600.48,-759 520.48,-759 520.48,-740 600.48,-740 600.48,-759"/>
<text text-anchor="middle" x="560.48" y="-747" font-family="Times,serif" font-size="10.00">build/clparser.o</text>
</g>
<!-- 0x7fe58d5063d0&#45;&gt;0x7fe58d508e00 -->
<g id="edge19" class="edge">
<title>0x7fe58d5063d0&#45;&gt;0x7fe58d508e00</title>
<path fill="none" stroke="black" d="M600.77,-743.78C608,-741.1 614.86,-737.19 619.98,-731.5 655.06,-692.53 628.96,-542.81 656.98,-498.5 668.2,-480.76 689.23,-468.62 705.23,-461.46"/>
</g>
<!-- 0x7fe58d5065e0 -->
<g id="node21" class="node">
<title>0x7fe58d5065e0</title>
<polygon fill="none" stroke="black" points="609.48,-722 511.48,-722 511.48,-703 609.48,-703 609.48,-722"/>
<text text-anchor="middle" x="560.48" y="-710" font-family="Times,serif" font-size="10.00">build/debug_flags.o</text>
</g>
<!-- 0x7fe58d5065e0&#45;&gt;0x7fe58d508e00 -->
<g id="edge20" class="edge">
<title>0x7fe58d5065e0&#45;&gt;0x7fe58d508e00</title>
<path fill="none" stroke="black" d="M608.77,-702.89C612.93,-700.65 616.77,-697.89 619.98,-694.5 643.93,-669.23 632.17,-652.64 638.98,-618.5 649.53,-565.61 627.77,-543.83 656.98,-498.5 668.35,-480.86 689.36,-468.7 705.31,-461.51"/>
</g>
<!-- 0x7fe58d5067a0 -->
<g id="node22" class="node">
<title>0x7fe58d5067a0</title>
<polygon fill="none" stroke="black" points="613.48,-685 507.48,-685 507.48,-666 613.48,-666 613.48,-685"/>
<text text-anchor="middle" x="560.48" y="-673" font-family="Times,serif" font-size="10.00">build/depfile_parser.o</text>
</g>
<!-- 0x7fe58d5067a0&#45;&gt;0x7fe58d508e00 -->
<g id="edge21" class="edge">
<title>0x7fe58d5067a0&#45;&gt;0x7fe58d508e00</title>
<path fill="none" stroke="black" d="M607.88,-665.87C612.31,-663.64 616.46,-660.89 619.98,-657.5 638.33,-639.87 632.59,-628.13 638.98,-603.5 650.88,-557.67 630.92,-538.03 656.98,-498.5 668.54,-480.98 689.52,-468.81 705.41,-461.58"/>
</g>
<!-- 0x7fe58d506a00 -->
<g id="node23" class="node">
<title>0x7fe58d506a00</title>
<polygon fill="none" stroke="black" points="603.48,-648 517.48,-648 517.48,-629 603.48,-629 603.48,-648"/>
<text text-anchor="middle" x="560.48" y="-636" font-family="Times,serif" font-size="10.00">build/deps_log.o</text>
</g>
<!-- 0x7fe58d506a00&#45;&gt;0x7fe58d508e00 -->
<g id="edge22" class="edge">
<title>0x7fe58d506a00&#45;&gt;0x7fe58d508e00</title>
<path fill="none" stroke="black" d="M603.51,-630.94C609.58,-628.4 615.33,-625.02 619.98,-620.5 660.62,-581.01 623.55,-544.24 656.98,-498.5 669.37,-481.56 690.23,-469.3 705.87,-461.9"/>
</g>
<!-- 0x7fe58d506b60 -->
<g id="node24" class="node">
<title>0x7fe58d506b60</title>
<polygon fill="none" stroke="black" points="613.98,-611 506.98,-611 506.98,-592 613.98,-592 613.98,-611"/>
<text text-anchor="middle" x="560.48" y="-599" font-family="Times,serif" font-size="10.00">build/disk_interface.o</text>
</g>
<!-- 0x7fe58d506b60&#45;&gt;0x7fe58d508e00 -->
<g id="edge23" class="edge">
<title>0x7fe58d506b60&#45;&gt;0x7fe58d508e00</title>
<path fill="none" stroke="black" d="M607.05,-591.89C611.75,-589.66 616.18,-586.9 619.98,-583.5 650.7,-556.04 630.33,-529.92 656.98,-498.5 670.65,-482.38 691.54,-469.94 706.85,-462.26"/>
</g>
<!-- 0x7fe58d506d40 -->
<g id="node25" class="node">
<title>0x7fe58d506d40</title>
<polygon fill="none" stroke="black" points="600.48,-574 520.48,-574 520.48,-555 600.48,-555 600.48,-574"/>
<text text-anchor="middle" x="560.48" y="-562" font-family="Times,serif" font-size="10.00">build/dyndep.o</text>
</g>
<!-- 0x7fe58d506d40&#45;&gt;0x7fe58d508e00 -->
<g id="edge24" class="edge">
<title>0x7fe58d506d40&#45;&gt;0x7fe58d508e00</title>
<path fill="none" stroke="black" d="M600.49,-556.19C607.34,-553.72 614.13,-550.56 619.98,-546.5 642.12,-531.15 637.17,-516.75 656.98,-498.5 672.63,-484.09 693.41,-471.3 708.17,-463.07"/>
</g>
<!-- 0x7fe58d506ee0 -->
<g id="node26" class="node">
<title>0x7fe58d506ee0</title>
<polygon fill="none" stroke="black" points="614.98,-537 505.98,-537 505.98,-518 614.98,-518 614.98,-537"/>
<text text-anchor="middle" x="560.48" y="-525" font-family="Times,serif" font-size="10.00">build/dyndep_parser.o</text>
</g>
<!-- 0x7fe58d506ee0&#45;&gt;0x7fe58d508e00 -->
<g id="edge25" class="edge">
<title>0x7fe58d506ee0&#45;&gt;0x7fe58d508e00</title>
<path fill="none" stroke="black" d="M596.2,-517.98C604.11,-515.49 612.42,-512.62 619.98,-509.5 652.81,-495.96 689,-475.71 709.62,-463.63"/>
</g>
<!-- 0x7fe58d507160 -->
<g id="node27" class="node">
<title>0x7fe58d507160</title>
<polygon fill="none" stroke="black" points="612.48,-500 508.48,-500 508.48,-481 612.48,-481 612.48,-500"/>
<text text-anchor="middle" x="560.48" y="-488" font-family="Times,serif" font-size="10.00">build/edit_distance.o</text>
</g>
<!-- 0x7fe58d507160&#45;&gt;0x7fe58d508e00 -->
<g id="edge26" class="edge">
<title>0x7fe58d507160&#45;&gt;0x7fe58d508e00</title>
<path fill="none" stroke="black" d="M603.97,-480.97C635.29,-473.95 676.76,-464.65 702.52,-458.87"/>
</g>
<!-- 0x7fe58d507320 -->
<g id="node28" class="node">
<title>0x7fe58d507320</title>
<polygon fill="none" stroke="black" points="603.48,-463 517.48,-463 517.48,-444 603.48,-444 603.48,-463"/>
<text text-anchor="middle" x="560.48" y="-451" font-family="Times,serif" font-size="10.00">build/eval_env.o</text>
</g>
<!-- 0x7fe58d507320&#45;&gt;0x7fe58d508e00 -->
<g id="edge27" class="edge">
<title>0x7fe58d507320&#45;&gt;0x7fe58d508e00</title>
<path fill="none" stroke="black" d="M603.55,-453.5C634.1,-453.5 674.48,-453.5 700.47,-453.5"/>
</g>
<!-- 0x7fe58d5074e0 -->
<g id="node29" class="node">
<title>0x7fe58d5074e0</title>
<polygon fill="none" stroke="black" points="596.48,-426 524.48,-426 524.48,-407 596.48,-407 596.48,-426"/>
<text text-anchor="middle" x="560.48" y="-414" font-family="Times,serif" font-size="10.00">build/graph.o</text>
</g>
<!-- 0x7fe58d5074e0&#45;&gt;0x7fe58d508e00 -->
<g id="edge28" class="edge">
<title>0x7fe58d5074e0&#45;&gt;0x7fe58d508e00</title>
<path fill="none" stroke="black" d="M596.88,-424.44C628.7,-431.57 674.57,-441.86 702.35,-448.09"/>
</g>
<!-- 0x7fe58d5076a0 -->
<g id="node30" class="node">
<title>0x7fe58d5076a0</title>
<polygon fill="none" stroke="black" points="602.98,-389 517.98,-389 517.98,-370 602.98,-370 602.98,-389"/>
<text text-anchor="middle" x="560.48" y="-377" font-family="Times,serif" font-size="10.00">build/graphviz.o</text>
</g>
<!-- 0x7fe58d5076a0&#45;&gt;0x7fe58d508e00 -->
<g id="edge29" class="edge">
<title>0x7fe58d5076a0&#45;&gt;0x7fe58d508e00</title>
<path fill="none" stroke="black" d="M594.01,-389.03C602.56,-391.81 611.7,-395.05 619.98,-398.5 652.44,-412.05 688.46,-431.68 709.19,-443.45"/>
</g>
<!-- 0x7fe58d507950 -->
<g id="node31" class="node">
<title>0x7fe58d507950</title>
<polygon fill="none" stroke="black" points="594.98,-352 525.98,-352 525.98,-333 594.98,-333 594.98,-352"/>
<text text-anchor="middle" x="560.48" y="-340" font-family="Times,serif" font-size="10.00">build/lexer.o</text>
</g>
<!-- 0x7fe58d507950&#45;&gt;0x7fe58d508e00 -->
<g id="edge30" class="edge">
<title>0x7fe58d507950&#45;&gt;0x7fe58d508e00</title>
<path fill="none" stroke="black" d="M595.02,-349.56C603.66,-352.37 612.59,-356.23 619.98,-361.5 642.21,-377.33 636.81,-392.12 656.98,-410.5 672.29,-424.45 692.75,-436.48 707.5,-444.23"/>
</g>
<!-- 0x7fe58d507ad0 -->
<g id="node32" class="node">
<title>0x7fe58d507ad0</title>
<polygon fill="none" stroke="black" points="608.98,-315 511.98,-315 511.98,-296 608.98,-296 608.98,-315"/>
<text text-anchor="middle" x="560.48" y="-303" font-family="Times,serif" font-size="10.00">build/line_printer.o</text>
</g>
<!-- 0x7fe58d507ad0&#45;&gt;0x7fe58d508e00 -->
<g id="edge31" class="edge">
<title>0x7fe58d507ad0&#45;&gt;0x7fe58d508e00</title>
<path fill="none" stroke="black" d="M605.31,-315.06C610.66,-317.52 615.72,-320.61 619.98,-324.5 650.73,-352.53 629.81,-378.99 656.98,-410.5 670.42,-426.08 690.93,-437.81 706.19,-445.05"/>
</g>
<!-- 0x7fe58d507ce0 -->
<g id="node33" class="node">
<title>0x7fe58d507ce0</title>
<polygon fill="none" stroke="black" points="616.98,-278 503.98,-278 503.98,-259 616.98,-259 616.98,-278"/>
<text text-anchor="middle" x="560.48" y="-266" font-family="Times,serif" font-size="10.00">build/manifest_parser.o</text>
</g>
<!-- 0x7fe58d507ce0&#45;&gt;0x7fe58d508e00 -->
<g id="edge32" class="edge">
<title>0x7fe58d507ce0&#45;&gt;0x7fe58d508e00</title>
<path fill="none" stroke="black" d="M606.62,-278.05C611.56,-280.51 616.17,-283.61 619.98,-287.5 659.91,-328.3 622.23,-365.21 656.98,-410.5 669.51,-426.82 690.14,-438.45 705.68,-445.46"/>
</g>
<!-- 0x7fe58d507ea0 -->
<g id="node34" class="node">
<title>0x7fe58d507ea0</title>
<polygon fill="none" stroke="black" points="599.48,-241 521.48,-241 521.48,-222 599.48,-222 599.48,-241"/>
<text text-anchor="middle" x="560.48" y="-229" font-family="Times,serif" font-size="10.00">build/metrics.o</text>
</g>
<!-- 0x7fe58d507ea0&#45;&gt;0x7fe58d508e00 -->
<g id="edge33" class="edge">
<title>0x7fe58d507ea0&#45;&gt;0x7fe58d508e00</title>
<path fill="none" stroke="black" d="M599.78,-238.08C607.25,-240.87 614.47,-244.84 619.98,-250.5 640.69,-271.75 632.02,-285.66 638.98,-314.5 649.17,-356.7 632.43,-374.7 656.98,-410.5 668.62,-427.47 689.37,-439.01 705.18,-445.83"/>
</g>
<!-- 0x7fe58d508000 -->
<g id="node35" class="node">
<title>0x7fe58d508000</title>
<polygon fill="none" stroke="black" points="596.98,-204 523.98,-204 523.98,-185 596.98,-185 596.98,-204"/>
<text text-anchor="middle" x="560.48" y="-192" font-family="Times,serif" font-size="10.00">build/parser.o</text>
</g>
<!-- 0x7fe58d508000&#45;&gt;0x7fe58d508e00 -->
<g id="edge34" class="edge">
<title>0x7fe58d508000&#45;&gt;0x7fe58d508e00</title>
<path fill="none" stroke="black" d="M597.13,-199.65C605.65,-202.47 614.01,-206.81 619.98,-213.5 648.09,-244.96 631.16,-265.04 638.98,-306.5 647.68,-352.6 630.73,-371.63 656.98,-410.5 668.5,-427.55 689.27,-439.08 705.11,-445.87"/>
</g>
<!-- 0x7fe58d5081c0 -->
<g id="node36" class="node">
<title>0x7fe58d5081c0</title>
<polygon fill="none" stroke="black" points="594.48,-167 526.48,-167 526.48,-148 594.48,-148 594.48,-167"/>
<text text-anchor="middle" x="560.48" y="-155" font-family="Times,serif" font-size="10.00">build/state.o</text>
</g>
<!-- 0x7fe58d5081c0&#45;&gt;0x7fe58d508e00 -->
<g id="edge35" class="edge">
<title>0x7fe58d5081c0&#45;&gt;0x7fe58d508e00</title>
<path fill="none" stroke="black" d="M594.59,-161.61C604.05,-164.38 613.53,-168.95 619.98,-176.5 654.17,-216.53 627.83,-366.66 656.98,-410.5 668.37,-427.63 689.16,-439.15 705.04,-445.92"/>
</g>
<!-- 0x7fe58d508400 -->
<g id="node37" class="node">
<title>0x7fe58d508400</title>
<polygon fill="none" stroke="black" points="619.98,-130 500.98,-130 500.98,-111 619.98,-111 619.98,-130"/>
<text text-anchor="middle" x="560.48" y="-118" font-family="Times,serif" font-size="10.00">build/string_piece_util.o</text>
</g>
<!-- 0x7fe58d508400&#45;&gt;0x7fe58d508e00 -->
<g id="edge36" class="edge">
<title>0x7fe58d508400&#45;&gt;0x7fe58d508e00</title>
<path fill="none" stroke="black" d="M607.86,-130.14C612.41,-132.59 616.59,-135.66 619.98,-139.5 660.25,-185.03 624.69,-359.01 656.98,-410.5 667.91,-427.93 688.76,-439.41 704.78,-446.09"/>
</g>
<!-- 0x7fe58d5085a0 -->
<g id="node38" class="node">
<title>0x7fe58d5085a0</title>
<polygon fill="none" stroke="black" points="591.98,-93 528.98,-93 528.98,-74 591.98,-74 591.98,-93"/>
<text text-anchor="middle" x="560.48" y="-81" font-family="Times,serif" font-size="10.00">build/util.o</text>
</g>
<!-- 0x7fe58d5085a0&#45;&gt;0x7fe58d508e00 -->
<g id="edge37" class="edge">
<title>0x7fe58d5085a0&#45;&gt;0x7fe58d508e00</title>
<path fill="none" stroke="black" d="M592.22,-87.22C602.35,-89.92 612.84,-94.56 619.98,-102.5 666.08,-153.76 620.98,-351.71 656.98,-410.5 667.73,-428.04 688.6,-439.51 704.68,-446.15"/>
</g>
<!-- 0x7fe58d507080 -->
<g id="node39" class="node">
<title>0x7fe58d507080</title>
<polygon fill="none" stroke="black" points="599.98,-56 520.98,-56 520.98,-37 599.98,-37 599.98,-56"/>
<text text-anchor="middle" x="560.48" y="-44" font-family="Times,serif" font-size="10.00">build/version.o</text>
</g>
<!-- 0x7fe58d507080&#45;&gt;0x7fe58d508e00 -->
<g id="edge38" class="edge">
<title>0x7fe58d507080&#45;&gt;0x7fe58d508e00</title>
<path fill="none" stroke="black" d="M600.01,-52.86C607.47,-55.66 614.62,-59.7 619.98,-65.5 644.5,-92.01 633.52,-108.8 638.98,-144.5 647.94,-203.07 626.41,-359.75 656.98,-410.5 667.6,-428.12 688.49,-439.58 704.6,-446.2"/>
</g>
<!-- 0x7fe58d508b10 -->
<g id="node40" class="node">
<title>0x7fe58d508b10</title>
<polygon fill="none" stroke="black" points="619.98,-19 500.98,-19 500.98,0 619.98,0 619.98,-19"/>
<text text-anchor="middle" x="560.48" y="-7" font-family="Times,serif" font-size="10.00">build/subprocess&#45;posix.o</text>
</g>
<!-- 0x7fe58d508b10&#45;&gt;0x7fe58d508e00 -->
<g id="edge39" class="edge">
<title>0x7fe58d508b10&#45;&gt;0x7fe58d508e00</title>
<path fill="none" stroke="black" d="M609.29,-19.04C613.29,-21.3 616.95,-24.08 619.98,-27.5 676.67,-91.51 612.96,-337.2 656.98,-410.5 667.57,-428.14 688.46,-439.59 704.59,-446.21"/>
</g>
<!-- 0x7fe58d505910 -->
<g id="node41" class="node">
<title>0x7fe58d505910</title>
<ellipse fill="none" stroke="black" cx="390.98" cy="-901.5" rx="27" ry="13.37"/>
<text text-anchor="middle" x="390.98" y="-899" font-family="Times,serif" font-size="10.00">cxx</text>
</g>
<!-- 0x7fe58d505910&#45;&gt;0x7fe58d505cb0 -->
<g id="edge40" class="edge">
<title>0x7fe58d505910&#45;&gt;0x7fe58d505cb0</title>
<path fill="none" stroke="black" d="M418.15,-901.19C442.93,-900.89 480.73,-900.44 511.01,-900.08"/>
<polygon fill="black" stroke="black" points="511.41,-903.57 521.37,-899.96 511.33,-896.57 511.41,-903.57"/>
</g>
<!-- 0x7fe58d505d10 -->
<g id="node42" class="node">
<title>0x7fe58d505d10</title>
<polygon fill="none" stroke="black" points="286.98,-926 215.98,-926 215.98,-907 286.98,-907 286.98,-926"/>
<text text-anchor="middle" x="251.48" y="-914" font-family="Times,serif" font-size="10.00">src/browse.cc</text>
</g>
<!-- 0x7fe58d505d10&#45;&gt;0x7fe58d505910 -->
<g id="edge41" class="edge">
<title>0x7fe58d505d10&#45;&gt;0x7fe58d505910</title>
<path fill="none" stroke="black" d="M287.18,-912.71C311.21,-910.09 342.66,-906.66 364.41,-904.29"/>
</g>
<!-- 0x7fe58d505a40 -->
<g id="node43" class="node">
<title>0x7fe58d505a40</title>
<polygon fill="none" stroke="black" points="297.98,-889 204.98,-889 204.98,-870 297.98,-870 297.98,-889"/>
<text text-anchor="middle" x="251.48" y="-877" font-family="Times,serif" font-size="10.00">build/browse_py.h</text>
</g>
<!-- 0x7fe58d505a40&#45;&gt;0x7fe58d505910 -->
<g id="edge42" class="edge">
<title>0x7fe58d505a40&#45;&gt;0x7fe58d505910</title>
<path fill="none" stroke="black" stroke-dasharray="1,5" d="M298.27,-886.83C320.46,-890.38 346.25,-894.5 364.82,-897.47"/>
</g>
<!-- 0x7fe58d5059d0 -->
<g id="node44" class="node">
<title>0x7fe58d5059d0</title>
<ellipse fill="none" stroke="black" cx="138.99" cy="-879.5" rx="28.98" ry="13.37"/>
<text text-anchor="middle" x="138.99" y="-877" font-family="Times,serif" font-size="10.00">inline</text>
</g>
<!-- 0x7fe58d5059d0&#45;&gt;0x7fe58d505a40 -->
<g id="edge43" class="edge">
<title>0x7fe58d5059d0&#45;&gt;0x7fe58d505a40</title>
<path fill="none" stroke="black" d="M168.16,-879.5C176.24,-879.5 185.35,-879.5 194.49,-879.5"/>
<polygon fill="black" stroke="black" points="194.77,-883 204.77,-879.5 194.77,-876 194.77,-883"/>
</g>
<!-- 0x7fe58d505aa0 -->
<g id="node45" class="node">
<title>0x7fe58d505aa0</title>
<polygon fill="none" stroke="black" points="73,-908 0,-908 0,-889 73,-889 73,-908"/>
<text text-anchor="middle" x="36.5" y="-896" font-family="Times,serif" font-size="10.00">src/browse.py</text>
</g>
<!-- 0x7fe58d505aa0&#45;&gt;0x7fe58d5059d0 -->
<g id="edge44" class="edge">
<title>0x7fe58d505aa0&#45;&gt;0x7fe58d5059d0</title>
<path fill="none" stroke="black" d="M73.21,-891.75C85.96,-889.34 100.08,-886.67 111.87,-884.44"/>
</g>
<!-- 0x7fe58d505b40 -->
<g id="node46" class="node">
<title>0x7fe58d505b40</title>
<polygon fill="none" stroke="black" points="69.5,-871 3.5,-871 3.5,-852 69.5,-852 69.5,-871"/>
<text text-anchor="middle" x="36.5" y="-859" font-family="Times,serif" font-size="10.00">src/inline.sh</text>
</g>
<!-- 0x7fe58d505b40&#45;&gt;0x7fe58d5059d0 -->
<g id="edge45" class="edge">
<title>0x7fe58d505b40&#45;&gt;0x7fe58d5059d0</title>
<path fill="none" stroke="black" d="M69.57,-867.24C83.13,-869.67 98.72,-872.47 111.6,-874.77"/>
</g>
<!-- 0x7fe58d505f00 -->
<g id="node47" class="node">
<title>0x7fe58d505f00</title>
<polygon fill="none" stroke="black" points="422.98,-870 358.98,-870 358.98,-851 422.98,-851 422.98,-870"/>
<text text-anchor="middle" x="390.98" y="-858" font-family="Times,serif" font-size="10.00">src/build.cc</text>
</g>
<!-- 0x7fe58d505f00&#45;&gt;0x7fe58d505e40 -->
<g id="edge46" class="edge">
<title>0x7fe58d505f00&#45;&gt;0x7fe58d505e40</title>
<path fill="none" stroke="black" d="M423.1,-860.5C448.8,-860.5 485.62,-860.5 514.52,-860.5"/>
<polygon fill="black" stroke="black" points="514.78,-864 524.78,-860.5 514.78,-857 514.78,-864"/>
<text text-anchor="middle" x="473.98" y="-863.5" font-family="Times,serif" font-size="10.00"> cxx</text>
</g>
<!-- 0x7fe58d5060c0 -->
<g id="node48" class="node">
<title>0x7fe58d5060c0</title>
<polygon fill="none" stroke="black" points="432.48,-833 349.48,-833 349.48,-814 432.48,-814 432.48,-833"/>
<text text-anchor="middle" x="390.98" y="-821" font-family="Times,serif" font-size="10.00">src/build_log.cc</text>
</g>
<!-- 0x7fe58d5060c0&#45;&gt;0x7fe58d506020 -->
<g id="edge47" class="edge">
<title>0x7fe58d5060c0&#45;&gt;0x7fe58d506020</title>
<path fill="none" stroke="black" d="M432.53,-823.5C454.46,-823.5 481.83,-823.5 505.53,-823.5"/>
<polygon fill="black" stroke="black" points="505.79,-827 515.79,-823.5 505.79,-820 505.79,-827"/>
<text text-anchor="middle" x="473.98" y="-826.5" font-family="Times,serif" font-size="10.00"> cxx</text>
</g>
<!-- 0x7fe58d506280 -->
<g id="node49" class="node">
<title>0x7fe58d506280</title>
<polygon fill="none" stroke="black" points="422.98,-796 358.98,-796 358.98,-777 422.98,-777 422.98,-796"/>
<text text-anchor="middle" x="390.98" y="-784" font-family="Times,serif" font-size="10.00">src/clean.cc</text>
</g>
<!-- 0x7fe58d506280&#45;&gt;0x7fe58d5061e0 -->
<g id="edge48" class="edge">
<title>0x7fe58d506280&#45;&gt;0x7fe58d5061e0</title>
<path fill="none" stroke="black" d="M423.1,-786.5C448.8,-786.5 485.62,-786.5 514.52,-786.5"/>
<polygon fill="black" stroke="black" points="514.78,-790 524.78,-786.5 514.78,-783 514.78,-790"/>
<text text-anchor="middle" x="473.98" y="-789.5" font-family="Times,serif" font-size="10.00"> cxx</text>
</g>
<!-- 0x7fe58d505ea0 -->
<g id="node50" class="node">
<title>0x7fe58d505ea0</title>
<polygon fill="none" stroke="black" points="427.98,-759 353.98,-759 353.98,-740 427.98,-740 427.98,-759"/>
<text text-anchor="middle" x="390.98" y="-747" font-family="Times,serif" font-size="10.00">src/clparser.cc</text>
</g>
<!-- 0x7fe58d505ea0&#45;&gt;0x7fe58d5063d0 -->
<g id="edge49" class="edge">
<title>0x7fe58d505ea0&#45;&gt;0x7fe58d5063d0</title>
<path fill="none" stroke="black" d="M428.33,-749.5C452.28,-749.5 483.95,-749.5 510.17,-749.5"/>
<polygon fill="black" stroke="black" points="510.29,-753 520.29,-749.5 510.29,-746 510.29,-753"/>
<text text-anchor="middle" x="473.98" y="-752.5" font-family="Times,serif" font-size="10.00"> cxx</text>
</g>
<!-- 0x7fe58d506680 -->
<g id="node51" class="node">
<title>0x7fe58d506680</title>
<polygon fill="none" stroke="black" points="436.98,-722 344.98,-722 344.98,-703 436.98,-703 436.98,-722"/>
<text text-anchor="middle" x="390.98" y="-710" font-family="Times,serif" font-size="10.00">src/debug_flags.cc</text>
</g>
<!-- 0x7fe58d506680&#45;&gt;0x7fe58d5065e0 -->
<g id="edge50" class="edge">
<title>0x7fe58d506680&#45;&gt;0x7fe58d5065e0</title>
<path fill="none" stroke="black" d="M437.31,-712.5C457.04,-712.5 480.41,-712.5 501.4,-712.5"/>
<polygon fill="black" stroke="black" points="501.48,-716 511.48,-712.5 501.48,-709 501.48,-716"/>
<text text-anchor="middle" x="473.98" y="-715.5" font-family="Times,serif" font-size="10.00"> cxx</text>
</g>
<!-- 0x7fe58d506870 -->
<g id="node52" class="node">
<title>0x7fe58d506870</title>
<polygon fill="none" stroke="black" points="440.48,-685 341.48,-685 341.48,-666 440.48,-666 440.48,-685"/>
<text text-anchor="middle" x="390.98" y="-673" font-family="Times,serif" font-size="10.00">src/depfile_parser.cc</text>
</g>
<!-- 0x7fe58d506870&#45;&gt;0x7fe58d5067a0 -->
<g id="edge51" class="edge">
<title>0x7fe58d506870&#45;&gt;0x7fe58d5067a0</title>
<path fill="none" stroke="black" d="M440.88,-675.5C458.48,-675.5 478.58,-675.5 497.16,-675.5"/>
<polygon fill="black" stroke="black" points="497.31,-679 507.31,-675.5 497.31,-672 497.31,-679"/>
<text text-anchor="middle" x="473.98" y="-678.5" font-family="Times,serif" font-size="10.00"> cxx</text>
</g>
<!-- 0x7fe58d506a60 -->
<g id="node53" class="node">
<title>0x7fe58d506a60</title>
<polygon fill="none" stroke="black" points="430.98,-648 350.98,-648 350.98,-629 430.98,-629 430.98,-648"/>
<text text-anchor="middle" x="390.98" y="-636" font-family="Times,serif" font-size="10.00">src/deps_log.cc</text>
</g>
<!-- 0x7fe58d506a60&#45;&gt;0x7fe58d506a00 -->
<g id="edge52" class="edge">
<title>0x7fe58d506a60&#45;&gt;0x7fe58d506a00</title>
<path fill="none" stroke="black" d="M431.25,-638.5C453.84,-638.5 482.52,-638.5 507.02,-638.5"/>
<polygon fill="black" stroke="black" points="507.23,-642 517.23,-638.5 507.23,-635 507.23,-642"/>
<text text-anchor="middle" x="473.98" y="-641.5" font-family="Times,serif" font-size="10.00"> cxx</text>
</g>
<!-- 0x7fe58d506c30 -->
<g id="node54" class="node">
<title>0x7fe58d506c30</title>
<polygon fill="none" stroke="black" points="440.98,-611 340.98,-611 340.98,-592 440.98,-592 440.98,-611"/>
<text text-anchor="middle" x="390.98" y="-599" font-family="Times,serif" font-size="10.00">src/disk_interface.cc</text>
</g>
<!-- 0x7fe58d506c30&#45;&gt;0x7fe58d506b60 -->
<g id="edge53" class="edge">
<title>0x7fe58d506c30&#45;&gt;0x7fe58d506b60</title>
<path fill="none" stroke="black" d="M441.33,-601.5C458.6,-601.5 478.22,-601.5 496.44,-601.5"/>
<polygon fill="black" stroke="black" points="496.69,-605 506.69,-601.5 496.69,-598 496.69,-605"/>
<text text-anchor="middle" x="473.98" y="-604.5" font-family="Times,serif" font-size="10.00"> cxx</text>
</g>
<!-- 0x7fe58d506dd0 -->
<g id="node55" class="node">
<title>0x7fe58d506dd0</title>
<polygon fill="none" stroke="black" points="427.48,-574 354.48,-574 354.48,-555 427.48,-555 427.48,-574"/>
<text text-anchor="middle" x="390.98" y="-562" font-family="Times,serif" font-size="10.00">src/dyndep.cc</text>
</g>
<!-- 0x7fe58d506dd0&#45;&gt;0x7fe58d506d40 -->
<g id="edge54" class="edge">
<title>0x7fe58d506dd0&#45;&gt;0x7fe58d506d40</title>
<path fill="none" stroke="black" d="M427.51,-564.5C451.5,-564.5 483.5,-564.5 509.98,-564.5"/>
<polygon fill="black" stroke="black" points="510.2,-568 520.2,-564.5 510.2,-561 510.2,-568"/>
<text text-anchor="middle" x="473.98" y="-567.5" font-family="Times,serif" font-size="10.00"> cxx</text>
</g>
<!-- 0x7fe58d5070f0 -->
<g id="node56" class="node">
<title>0x7fe58d5070f0</title>
<polygon fill="none" stroke="black" points="441.98,-537 339.98,-537 339.98,-518 441.98,-518 441.98,-537"/>
<text text-anchor="middle" x="390.98" y="-525" font-family="Times,serif" font-size="10.00">src/dyndep_parser.cc</text>
</g>
<!-- 0x7fe58d5070f0&#45;&gt;0x7fe58d506ee0 -->
<g id="edge55" class="edge">
<title>0x7fe58d5070f0&#45;&gt;0x7fe58d506ee0</title>
<path fill="none" stroke="black" d="M442.24,-527.5C458.99,-527.5 477.89,-527.5 495.54,-527.5"/>
<polygon fill="black" stroke="black" points="495.76,-531 505.76,-527.5 495.76,-524 495.76,-531"/>
<text text-anchor="middle" x="473.98" y="-530.5" font-family="Times,serif" font-size="10.00"> cxx</text>
</g>
<!-- 0x7fe58d507200 -->
<g id="node57" class="node">
<title>0x7fe58d507200</title>
<polygon fill="none" stroke="black" points="439.48,-500 342.48,-500 342.48,-481 439.48,-481 439.48,-500"/>
<text text-anchor="middle" x="390.98" y="-488" font-family="Times,serif" font-size="10.00">src/edit_distance.cc</text>
</g>
<!-- 0x7fe58d507200&#45;&gt;0x7fe58d507160 -->
<g id="edge56" class="edge">
<title>0x7fe58d507200&#45;&gt;0x7fe58d507160</title>
<path fill="none" stroke="black" d="M439.53,-490.5C457.73,-490.5 478.76,-490.5 498.07,-490.5"/>
<polygon fill="black" stroke="black" points="498.3,-494 508.3,-490.5 498.3,-487 498.3,-494"/>
<text text-anchor="middle" x="473.98" y="-493.5" font-family="Times,serif" font-size="10.00"> cxx</text>
</g>
<!-- 0x7fe58d5073c0 -->
<g id="node58" class="node">
<title>0x7fe58d5073c0</title>
<polygon fill="none" stroke="black" points="430.48,-463 351.48,-463 351.48,-444 430.48,-444 430.48,-463"/>
<text text-anchor="middle" x="390.98" y="-451" font-family="Times,serif" font-size="10.00">src/eval_env.cc</text>
</g>
<!-- 0x7fe58d5073c0&#45;&gt;0x7fe58d507320 -->
<g id="edge57" class="edge">
<title>0x7fe58d5073c0&#45;&gt;0x7fe58d507320</title>
<path fill="none" stroke="black" d="M430.83,-453.5C453.49,-453.5 482.39,-453.5 507.04,-453.5"/>
<polygon fill="black" stroke="black" points="507.32,-457 517.32,-453.5 507.32,-450 507.32,-457"/>
<text text-anchor="middle" x="473.98" y="-456.5" font-family="Times,serif" font-size="10.00"> cxx</text>
</g>
<!-- 0x7fe58d507580 -->
<g id="node59" class="node">
<title>0x7fe58d507580</title>
<polygon fill="none" stroke="black" points="423.48,-426 358.48,-426 358.48,-407 423.48,-407 423.48,-426"/>
<text text-anchor="middle" x="390.98" y="-414" font-family="Times,serif" font-size="10.00">src/graph.cc</text>
</g>
<!-- 0x7fe58d507580&#45;&gt;0x7fe58d5074e0 -->
<g id="edge58" class="edge">
<title>0x7fe58d507580&#45;&gt;0x7fe58d5074e0</title>
<path fill="none" stroke="black" d="M423.49,-416.5C449.06,-416.5 485.46,-416.5 514.16,-416.5"/>
<polygon fill="black" stroke="black" points="514.35,-420 524.35,-416.5 514.35,-413 514.35,-420"/>
<text text-anchor="middle" x="473.98" y="-419.5" font-family="Times,serif" font-size="10.00"> cxx</text>
</g>
<!-- 0x7fe58d507740 -->
<g id="node60" class="node">
<title>0x7fe58d507740</title>
<polygon fill="none" stroke="black" points="429.98,-389 351.98,-389 351.98,-370 429.98,-370 429.98,-389"/>
<text text-anchor="middle" x="390.98" y="-377" font-family="Times,serif" font-size="10.00">src/graphviz.cc</text>
</g>
<!-- 0x7fe58d507740&#45;&gt;0x7fe58d5076a0 -->
<g id="edge59" class="edge">
<title>0x7fe58d507740&#45;&gt;0x7fe58d5076a0</title>
<path fill="none" stroke="black" d="M429.99,-379.5C452.98,-379.5 482.6,-379.5 507.71,-379.5"/>
<polygon fill="black" stroke="black" points="507.81,-383 517.81,-379.5 507.81,-376 507.81,-383"/>
<text text-anchor="middle" x="473.98" y="-382.5" font-family="Times,serif" font-size="10.00"> cxx</text>
</g>
<!-- 0x7fe58d5079c0 -->
<g id="node61" class="node">
<title>0x7fe58d5079c0</title>
<polygon fill="none" stroke="black" points="421.98,-352 359.98,-352 359.98,-333 421.98,-333 421.98,-352"/>
<text text-anchor="middle" x="390.98" y="-340" font-family="Times,serif" font-size="10.00">src/lexer.cc</text>
</g>
<!-- 0x7fe58d5079c0&#45;&gt;0x7fe58d507950 -->
<g id="edge60" class="edge">
<title>0x7fe58d5079c0&#45;&gt;0x7fe58d507950</title>
<path fill="none" stroke="black" d="M422.32,-342.5C448.46,-342.5 486.52,-342.5 515.92,-342.5"/>
<polygon fill="black" stroke="black" points="515.92,-346 525.92,-342.5 515.92,-339 515.92,-346"/>
<text text-anchor="middle" x="473.98" y="-345.5" font-family="Times,serif" font-size="10.00"> cxx</text>
</g>
<!-- 0x7fe58d507b40 -->
<g id="node62" class="node">
<title>0x7fe58d507b40</title>
<polygon fill="none" stroke="black" points="435.98,-315 345.98,-315 345.98,-296 435.98,-296 435.98,-315"/>
<text text-anchor="middle" x="390.98" y="-303" font-family="Times,serif" font-size="10.00">src/line_printer.cc</text>
</g>
<!-- 0x7fe58d507b40&#45;&gt;0x7fe58d507ad0 -->
<g id="edge61" class="edge">
<title>0x7fe58d507b40&#45;&gt;0x7fe58d507ad0</title>
<path fill="none" stroke="black" d="M435.99,-305.5C456.16,-305.5 480.33,-305.5 501.91,-305.5"/>
<polygon fill="black" stroke="black" points="501.95,-309 511.95,-305.5 501.95,-302 501.95,-309"/>
<text text-anchor="middle" x="473.98" y="-308.5" font-family="Times,serif" font-size="10.00"> cxx</text>
</g>
<!-- 0x7fe58d507d60 -->
<g id="node63" class="node">
<title>0x7fe58d507d60</title>
<polygon fill="none" stroke="black" points="443.98,-278 337.98,-278 337.98,-259 443.98,-259 443.98,-278"/>
<text text-anchor="middle" x="390.98" y="-266" font-family="Times,serif" font-size="10.00">src/manifest_parser.cc</text>
</g>
<!-- 0x7fe58d507d60&#45;&gt;0x7fe58d507ce0 -->
<g id="edge62" class="edge">
<title>0x7fe58d507d60&#45;&gt;0x7fe58d507ce0</title>
<path fill="none" stroke="black" d="M444.06,-268.5C459.81,-268.5 477.31,-268.5 493.82,-268.5"/>
<polygon fill="black" stroke="black" points="493.95,-272 503.95,-268.5 493.95,-265 493.95,-272"/>
<text text-anchor="middle" x="473.98" y="-271.5" font-family="Times,serif" font-size="10.00"> cxx</text>
</g>
<!-- 0x7fe58d507f00 -->
<g id="node64" class="node">
<title>0x7fe58d507f00</title>
<polygon fill="none" stroke="black" points="426.48,-241 355.48,-241 355.48,-222 426.48,-222 426.48,-241"/>
<text text-anchor="middle" x="390.98" y="-229" font-family="Times,serif" font-size="10.00">src/metrics.cc</text>
</g>
<!-- 0x7fe58d507f00&#45;&gt;0x7fe58d507ea0 -->
<g id="edge63" class="edge">
<title>0x7fe58d507f00&#45;&gt;0x7fe58d507ea0</title>
<path fill="none" stroke="black" d="M426.69,-231.5C451.16,-231.5 484.26,-231.5 511.29,-231.5"/>
<polygon fill="black" stroke="black" points="511.32,-235 521.32,-231.5 511.32,-228 511.32,-235"/>
<text text-anchor="middle" x="473.98" y="-234.5" font-family="Times,serif" font-size="10.00"> cxx</text>
</g>
<!-- 0x7fe58d5080a0 -->
<g id="node65" class="node">
<title>0x7fe58d5080a0</title>
<polygon fill="none" stroke="black" points="423.98,-204 357.98,-204 357.98,-185 423.98,-185 423.98,-204"/>
<text text-anchor="middle" x="390.98" y="-192" font-family="Times,serif" font-size="10.00">src/parser.cc</text>
</g>
<!-- 0x7fe58d5080a0&#45;&gt;0x7fe58d508000 -->
<g id="edge64" class="edge">
<title>0x7fe58d5080a0&#45;&gt;0x7fe58d508000</title>
<path fill="none" stroke="black" d="M424.28,-194.5C449.68,-194.5 485.39,-194.5 513.73,-194.5"/>
<polygon fill="black" stroke="black" points="513.81,-198 523.81,-194.5 513.81,-191 513.81,-198"/>
<text text-anchor="middle" x="473.98" y="-197.5" font-family="Times,serif" font-size="10.00"> cxx</text>
</g>
<!-- 0x7fe58d508260 -->
<g id="node66" class="node">
<title>0x7fe58d508260</title>
<polygon fill="none" stroke="black" points="421.48,-167 360.48,-167 360.48,-148 421.48,-148 421.48,-167"/>
<text text-anchor="middle" x="390.98" y="-155" font-family="Times,serif" font-size="10.00">src/state.cc</text>
</g>
<!-- 0x7fe58d508260&#45;&gt;0x7fe58d5081c0 -->
<g id="edge65" class="edge">
<title>0x7fe58d508260&#45;&gt;0x7fe58d5081c0</title>
<path fill="none" stroke="black" d="M421.54,-157.5C447.75,-157.5 486.38,-157.5 516.09,-157.5"/>
<polygon fill="black" stroke="black" points="516.2,-161 526.2,-157.5 516.2,-154 516.2,-161"/>
<text text-anchor="middle" x="473.98" y="-160.5" font-family="Times,serif" font-size="10.00"> cxx</text>
</g>
<!-- 0x7fe58d508480 -->
<g id="node67" class="node">
<title>0x7fe58d508480</title>
<polygon fill="none" stroke="black" points="446.98,-130 334.98,-130 334.98,-111 446.98,-111 446.98,-130"/>
<text text-anchor="middle" x="390.98" y="-118" font-family="Times,serif" font-size="10.00">src/string_piece_util.cc</text>
</g>
<!-- 0x7fe58d508480&#45;&gt;0x7fe58d508400 -->
<g id="edge66" class="edge">
<title>0x7fe58d508480&#45;&gt;0x7fe58d508400</title>
<path fill="none" stroke="black" d="M447.29,-120.5C461.1,-120.5 476.07,-120.5 490.44,-120.5"/>
<polygon fill="black" stroke="black" points="490.78,-124 500.78,-120.5 490.78,-117 490.78,-124"/>
<text text-anchor="middle" x="473.98" y="-123.5" font-family="Times,serif" font-size="10.00"> cxx</text>
</g>
<!-- 0x7fe58d506f70 -->
<g id="node68" class="node">
<title>0x7fe58d506f70</title>
<polygon fill="none" stroke="black" points="418.98,-93 362.98,-93 362.98,-74 418.98,-74 418.98,-93"/>
<text text-anchor="middle" x="390.98" y="-81" font-family="Times,serif" font-size="10.00">src/util.cc</text>
</g>
<!-- 0x7fe58d506f70&#45;&gt;0x7fe58d5085a0 -->
<g id="edge67" class="edge">
<title>0x7fe58d506f70&#45;&gt;0x7fe58d5085a0</title>
<path fill="none" stroke="black" d="M419.27,-83.5C446.25,-83.5 487.88,-83.5 518.77,-83.5"/>
<polygon fill="black" stroke="black" points="518.8,-87 528.8,-83.5 518.8,-80 518.8,-87"/>
<text text-anchor="middle" x="473.98" y="-86.5" font-family="Times,serif" font-size="10.00"> cxx</text>
</g>
<!-- 0x7fe58d508970 -->
<g id="node69" class="node">
<title>0x7fe58d508970</title>
<polygon fill="none" stroke="black" points="426.98,-56 354.98,-56 354.98,-37 426.98,-37 426.98,-56"/>
<text text-anchor="middle" x="390.98" y="-44" font-family="Times,serif" font-size="10.00">src/version.cc</text>
</g>
<!-- 0x7fe58d508970&#45;&gt;0x7fe58d507080 -->
<g id="edge68" class="edge">
<title>0x7fe58d508970&#45;&gt;0x7fe58d507080</title>
<path fill="none" stroke="black" d="M427.1,-46.5C451.32,-46.5 483.84,-46.5 510.59,-46.5"/>
<polygon fill="black" stroke="black" points="510.91,-50 520.91,-46.5 510.91,-43 510.91,-50"/>
<text text-anchor="middle" x="473.98" y="-49.5" font-family="Times,serif" font-size="10.00"> cxx</text>
</g>
<!-- 0x7fe58d508b90 -->
<g id="node70" class="node">
<title>0x7fe58d508b90</title>
<polygon fill="none" stroke="black" points="446.98,-19 334.98,-19 334.98,0 446.98,0 446.98,-19"/>
<text text-anchor="middle" x="390.98" y="-7" font-family="Times,serif" font-size="10.00">src/subprocess&#45;posix.cc</text>
</g>
<!-- 0x7fe58d508b90&#45;&gt;0x7fe58d508b10 -->
<g id="edge69" class="edge">
<title>0x7fe58d508b90&#45;&gt;0x7fe58d508b10</title>
<path fill="none" stroke="black" d="M447.29,-9.5C461.1,-9.5 476.07,-9.5 490.44,-9.5"/>
<polygon fill="black" stroke="black" points="490.78,-13 500.78,-9.5 490.78,-6 490.78,-13"/>
<text text-anchor="middle" x="473.98" y="-12.5" font-family="Times,serif" font-size="10.00"> cxx</text>
</g>
<!-- 0x7fe58d50b5c0&#45;&gt;0x7fe58d50b640 -->
<g id="edge70" class="edge">
<title>0x7fe58d50b5c0&#45;&gt;0x7fe58d50b640</title>
<path fill="none" stroke="black" d="M1074.4,-897.87C1095.61,-869.41 1147.19,-800.21 1171.66,-767.37"/>
<polygon fill="black" stroke="black" points="1174.63,-769.24 1177.8,-759.13 1169.02,-765.06 1174.63,-769.24"/>
</g>
<!-- 0x7fe58d5093e0 -->
<g id="node72" class="node">
<title>0x7fe58d5093e0</title>
<polygon fill="none" stroke="black" points="980.48,-1161 871.48,-1161 871.48,-1142 980.48,-1142 980.48,-1161"/>
<text text-anchor="middle" x="925.98" y="-1149" font-family="Times,serif" font-size="10.00">build/build_log_test.o</text>
</g>
<!-- 0x7fe58d5093e0&#45;&gt;0x7fe58d50b5c0 -->
<g id="edge71" class="edge">
<title>0x7fe58d5093e0&#45;&gt;0x7fe58d50b5c0</title>
<path fill="none" stroke="black" d="M980.74,-1144.27C987.71,-1141.67 994.36,-1138.17 999.98,-1133.5 1033.15,-1105.91 1054.97,-967.99 1061.17,-924.01"/>
</g>
<!-- 0x7fe58d509570 -->
<g id="node73" class="node">
<title>0x7fe58d509570</title>
<polygon fill="none" stroke="black" points="970.98,-1124 880.98,-1124 880.98,-1105 970.98,-1105 970.98,-1124"/>
<text text-anchor="middle" x="925.98" y="-1112" font-family="Times,serif" font-size="10.00">build/build_test.o</text>
</g>
<!-- 0x7fe58d509570&#45;&gt;0x7fe58d50b5c0 -->
<g id="edge72" class="edge">
<title>0x7fe58d509570&#45;&gt;0x7fe58d50b5c0</title>
<path fill="none" stroke="black" d="M971.33,-1110.29C981.6,-1107.6 991.88,-1103.3 999.98,-1096.5 1053.65,-1051.46 1061.75,-958.87 1062.86,-924.1"/>
</g>
<!-- 0x7fe58d509710 -->
<g id="node74" class="node">
<title>0x7fe58d509710</title>
<polygon fill="none" stroke="black" points="970.98,-1087 880.98,-1087 880.98,-1068 970.98,-1068 970.98,-1087"/>
<text text-anchor="middle" x="925.98" y="-1075" font-family="Times,serif" font-size="10.00">build/clean_test.o</text>
</g>
<!-- 0x7fe58d509710&#45;&gt;0x7fe58d50b5c0 -->
<g id="edge73" class="edge">
<title>0x7fe58d509710&#45;&gt;0x7fe58d50b5c0</title>
<path fill="none" stroke="black" d="M971.29,-1073.24C981.56,-1070.55 991.85,-1066.26 999.98,-1059.5 1042.95,-1023.76 1057.19,-953.55 1061.39,-924.06"/>
</g>
<!-- 0x7fe58d507850 -->
<g id="node75" class="node">
<title>0x7fe58d507850</title>
<polygon fill="none" stroke="black" points="975.98,-1050 875.98,-1050 875.98,-1031 975.98,-1031 975.98,-1050"/>
<text text-anchor="middle" x="925.98" y="-1038" font-family="Times,serif" font-size="10.00">build/clparser_test.o</text>
</g>
<!-- 0x7fe58d507850&#45;&gt;0x7fe58d50b5c0 -->
<g id="edge74" class="edge">
<title>0x7fe58d507850&#45;&gt;0x7fe58d50b5c0</title>
<path fill="none" stroke="black" d="M976.22,-1034.21C984.7,-1031.55 993.02,-1027.79 999.98,-1022.5 1033.73,-996.84 1052.08,-947.58 1059.31,-923.88"/>
</g>
<!-- 0x7fe58d509c10 -->
<g id="node76" class="node">
<title>0x7fe58d509c10</title>
<polygon fill="none" stroke="black" points="988.48,-1013 863.48,-1013 863.48,-994 988.48,-994 988.48,-1013"/>
<text text-anchor="middle" x="925.98" y="-1001" font-family="Times,serif" font-size="10.00">build/depfile_parser_test.o</text>
</g>
<!-- 0x7fe58d509c10&#45;&gt;0x7fe58d50b5c0 -->
<g id="edge75" class="edge">
<title>0x7fe58d509c10&#45;&gt;0x7fe58d50b5c0</title>
<path fill="none" stroke="black" d="M981.95,-993.99C988.28,-991.74 994.44,-988.95 999.98,-985.5 1025.24,-969.77 1045.41,-940.5 1055.64,-923.55"/>
</g>
<!-- 0x7fe58d509df0 -->
<g id="node77" class="node">
<title>0x7fe58d509df0</title>
<polygon fill="none" stroke="black" points="978.98,-976 872.98,-976 872.98,-957 978.98,-957 978.98,-976"/>
<text text-anchor="middle" x="925.98" y="-964" font-family="Times,serif" font-size="10.00">build/deps_log_test.o</text>
</g>
<!-- 0x7fe58d509df0&#45;&gt;0x7fe58d50b5c0 -->
<g id="edge76" class="edge">
<title>0x7fe58d509df0&#45;&gt;0x7fe58d50b5c0</title>
<path fill="none" stroke="black" d="M974.77,-956.91C983.31,-954.58 992.02,-951.79 999.98,-948.5 1017.33,-941.32 1035.53,-929.86 1047.88,-921.4"/>
</g>
<!-- 0x7fe58d509fe0 -->
<g id="node78" class="node">
<title>0x7fe58d509fe0</title>
<polygon fill="none" stroke="black" points="989.98,-939 861.98,-939 861.98,-920 989.98,-920 989.98,-939"/>
<text text-anchor="middle" x="925.98" y="-927" font-family="Times,serif" font-size="10.00">build/dyndep_parser_test.o</text>
</g>
<!-- 0x7fe58d509fe0&#45;&gt;0x7fe58d50b5c0 -->
<g id="edge77" class="edge">
<title>0x7fe58d509fe0&#45;&gt;0x7fe58d50b5c0</title>
<path fill="none" stroke="black" d="M990.21,-920.67C1006.99,-918.32 1024.17,-915.92 1037.62,-914.04"/>
</g>
<!-- 0x7fe58d50a1b0 -->
<g id="node79" class="node">
<title>0x7fe58d50a1b0</title>
<polygon fill="none" stroke="black" points="988.98,-902 862.98,-902 862.98,-883 988.98,-883 988.98,-902"/>
<text text-anchor="middle" x="925.98" y="-890" font-family="Times,serif" font-size="10.00">build/disk_interface_test.o</text>
</g>
<!-- 0x7fe58d50a1b0&#45;&gt;0x7fe58d50b5c0 -->
<g id="edge78" class="edge">
<title>0x7fe58d50a1b0&#45;&gt;0x7fe58d50b5c0</title>
<path fill="none" stroke="black" d="M989.01,-900.71C1006.25,-902.99 1024,-905.34 1037.79,-907.17"/>
</g>
<!-- 0x7fe58d50a3b0 -->
<g id="node80" class="node">
<title>0x7fe58d50a3b0</title>
<polygon fill="none" stroke="black" points="987.48,-865 864.48,-865 864.48,-846 987.48,-846 987.48,-865"/>
<text text-anchor="middle" x="925.98" y="-853" font-family="Times,serif" font-size="10.00">build/edit_distance_test.o</text>
</g>
<!-- 0x7fe58d50a3b0&#45;&gt;0x7fe58d50b5c0 -->
<g id="edge79" class="edge">
<title>0x7fe58d50a3b0&#45;&gt;0x7fe58d50b5c0</title>
<path fill="none" stroke="black" d="M971.22,-865.01C980.85,-867.63 990.89,-870.79 999.98,-874.5 1016.78,-881.34 1034.62,-891.88 1047,-899.79"/>
</g>
<!-- 0x7fe58d50a5b0 -->
<g id="node81" class="node">
<title>0x7fe58d50a5b0</title>
<polygon fill="none" stroke="black" points="971.98,-828 879.98,-828 879.98,-809 971.98,-809 971.98,-828"/>
<text text-anchor="middle" x="925.98" y="-816" font-family="Times,serif" font-size="10.00">build/graph_test.o</text>
</g>
<!-- 0x7fe58d50a5b0&#45;&gt;0x7fe58d50b5c0 -->
<g id="edge80" class="edge">
<title>0x7fe58d50a5b0&#45;&gt;0x7fe58d50b5c0</title>
<path fill="none" stroke="black" d="M972.35,-825.78C981.93,-828.53 991.64,-832.31 999.98,-837.5 1024.71,-852.89 1044.93,-881.08 1055.34,-897.57"/>
</g>
<!-- 0x7fe58d50a710 -->
<g id="node82" class="node">
<title>0x7fe58d50a710</title>
<polygon fill="none" stroke="black" points="970.48,-791 881.48,-791 881.48,-772 970.48,-772 970.48,-791"/>
<text text-anchor="middle" x="925.98" y="-779" font-family="Times,serif" font-size="10.00">build/lexer_test.o</text>
</g>
<!-- 0x7fe58d50a710&#45;&gt;0x7fe58d50b5c0 -->
<g id="edge81" class="edge">
<title>0x7fe58d50a710&#45;&gt;0x7fe58d50b5c0</title>
<path fill="none" stroke="black" d="M970.49,-786.86C980.9,-789.69 991.45,-793.98 999.98,-800.5 1033.03,-825.76 1051.62,-873.68 1059.09,-897.03"/>
</g>
<!-- 0x7fe58d50a970 -->
<g id="node83" class="node">
<title>0x7fe58d50a970</title>
<polygon fill="none" stroke="black" points="991.98,-754 859.98,-754 859.98,-735 991.98,-735 991.98,-754"/>
<text text-anchor="middle" x="925.98" y="-742" font-family="Times,serif" font-size="10.00">build/manifest_parser_test.o</text>
</g>
<!-- 0x7fe58d50a970&#45;&gt;0x7fe58d50b5c0 -->
<g id="edge82" class="edge">
<title>0x7fe58d50a970&#45;&gt;0x7fe58d50b5c0</title>
<path fill="none" stroke="black" d="M984.9,-754.11C990.36,-756.58 995.51,-759.66 999.98,-763.5 1041.67,-799.35 1056.56,-867.68 1061.17,-896.8"/>
</g>
<!-- 0x7fe58d50ab10 -->
<g id="node84" class="node">
<title>0x7fe58d50ab10</title>
<polygon fill="none" stroke="black" points="970.48,-717 881.48,-717 881.48,-698 970.48,-698 970.48,-717"/>
<text text-anchor="middle" x="925.98" y="-705" font-family="Times,serif" font-size="10.00">build/ninja_test.o</text>
</g>
<!-- 0x7fe58d50ab10&#45;&gt;0x7fe58d50b5c0 -->
<g id="edge83" class="edge">
<title>0x7fe58d50ab10&#45;&gt;0x7fe58d50b5c0</title>
<path fill="none" stroke="black" d="M970.57,-711.65C981.21,-714.48 991.86,-719.08 999.98,-726.5 1051.07,-773.2 1060.74,-863.1 1062.56,-897.06"/>
</g>
<!-- 0x7fe58d50ac90 -->
<g id="node85" class="node">
<title>0x7fe58d50ac90</title>
<polygon fill="none" stroke="black" points="969.48,-680 882.48,-680 882.48,-661 969.48,-661 969.48,-680"/>
<text text-anchor="middle" x="925.98" y="-668" font-family="Times,serif" font-size="10.00">build/state_test.o</text>
</g>
<!-- 0x7fe58d50ac90&#45;&gt;0x7fe58d50b5c0 -->
<g id="edge84" class="edge">
<title>0x7fe58d50ac90&#45;&gt;0x7fe58d50b5c0</title>
<path fill="none" stroke="black" d="M969.84,-674.42C980.73,-677.23 991.69,-681.88 999.98,-689.5 1061.51,-746.08 1064.52,-858.06 1063.59,-896.87"/>
</g>
<!-- 0x7fe58d50aef0 -->
<g id="node86" class="node">
<title>0x7fe58d50aef0</title>
<polygon fill="none" stroke="black" points="994.98,-643 856.98,-643 856.98,-624 994.98,-624 994.98,-643"/>
<text text-anchor="middle" x="925.98" y="-631" font-family="Times,serif" font-size="10.00">build/string_piece_util_test.o</text>
</g>
<!-- 0x7fe58d50aef0&#45;&gt;0x7fe58d50b5c0 -->
<g id="edge85" class="edge">
<title>0x7fe58d50aef0&#45;&gt;0x7fe58d50b5c0</title>
<path fill="none" stroke="black" d="M985.5,-643.01C990.78,-645.5 995.73,-648.61 999.98,-652.5 1036.99,-686.33 1056.59,-848.91 1061.65,-897.04"/>
</g>
<!-- 0x7fe58d50b0d0 -->
<g id="node87" class="node">
<title>0x7fe58d50b0d0</title>
<polygon fill="none" stroke="black" points="982.48,-1272 869.48,-1272 869.48,-1253 982.48,-1253 982.48,-1272"/>
<text text-anchor="middle" x="925.98" y="-1260" font-family="Times,serif" font-size="10.00">build/subprocess_test.o</text>
</g>
<!-- 0x7fe58d50b0d0&#45;&gt;0x7fe58d50b5c0 -->
<g id="edge86" class="edge">
<title>0x7fe58d50b0d0&#45;&gt;0x7fe58d50b5c0</title>
<path fill="none" stroke="black" d="M982.57,-1255.09C988.94,-1252.49 994.94,-1249.05 999.98,-1244.5 1048.61,-1200.62 1060.28,-981.67 1062.52,-924.29"/>
</g>
<!-- 0x7fe58d50b290 -->
<g id="node88" class="node">
<title>0x7fe58d50b290</title>
<polygon fill="none" stroke="black" points="957.48,-1235 894.48,-1235 894.48,-1216 957.48,-1216 957.48,-1235"/>
<text text-anchor="middle" x="925.98" y="-1223" font-family="Times,serif" font-size="10.00">build/test.o</text>
</g>
<!-- 0x7fe58d50b290&#45;&gt;0x7fe58d50b5c0 -->
<g id="edge87" class="edge">
<title>0x7fe58d50b290&#45;&gt;0x7fe58d50b5c0</title>
<path fill="none" stroke="black" d="M957.76,-1224.41C972.11,-1222.41 988.52,-1217.78 999.98,-1207.5 1043.15,-1168.79 1058.65,-977.27 1062.16,-924.17"/>
</g>
<!-- 0x7fe58d50b3f0 -->
<g id="node89" class="node">
<title>0x7fe58d50b3f0</title>
<polygon fill="none" stroke="black" points="967.48,-1198 884.48,-1198 884.48,-1179 967.48,-1179 967.48,-1198"/>
<text text-anchor="middle" x="925.98" y="-1186" font-family="Times,serif" font-size="10.00">build/util_test.o</text>
</g>
<!-- 0x7fe58d50b3f0&#45;&gt;0x7fe58d50b5c0 -->
<g id="edge88" class="edge">
<title>0x7fe58d50b3f0&#45;&gt;0x7fe58d50b5c0</title>
<path fill="none" stroke="black" d="M967.85,-1185.59C979.36,-1183 991.14,-1178.43 999.98,-1170.5 1037.58,-1136.78 1056.77,-972.68 1061.69,-924.08"/>
</g>
<!-- 0x7fe58d509470 -->
<g id="node90" class="node">
<title>0x7fe58d509470</title>
<polygon fill="none" stroke="black" points="778.48,-1161 676.48,-1161 676.48,-1142 778.48,-1142 778.48,-1161"/>
<text text-anchor="middle" x="727.48" y="-1149" font-family="Times,serif" font-size="10.00">src/build_log_test.cc</text>
</g>
<!-- 0x7fe58d509470&#45;&gt;0x7fe58d5093e0 -->
<g id="edge90" class="edge">
<title>0x7fe58d509470&#45;&gt;0x7fe58d5093e0</title>
<path fill="none" stroke="black" d="M778.58,-1151.5C803.68,-1151.5 834.36,-1151.5 861.14,-1151.5"/>
<polygon fill="black" stroke="black" points="861.19,-1155 871.19,-1151.5 861.19,-1148 861.19,-1155"/>
<text text-anchor="middle" x="824.98" y="-1154.5" font-family="Times,serif" font-size="10.00"> cxx</text>
</g>
<!-- 0x7fe58d509600 -->
<g id="node91" class="node">
<title>0x7fe58d509600</title>
<polygon fill="none" stroke="black" points="768.98,-1124 685.98,-1124 685.98,-1105 768.98,-1105 768.98,-1124"/>
<text text-anchor="middle" x="727.48" y="-1112" font-family="Times,serif" font-size="10.00">src/build_test.cc</text>
</g>
<!-- 0x7fe58d509600&#45;&gt;0x7fe58d509570 -->
<g id="edge91" class="edge">
<title>0x7fe58d509600&#45;&gt;0x7fe58d509570</title>
<path fill="none" stroke="black" d="M769.2,-1114.5C798.61,-1114.5 838.66,-1114.5 870.78,-1114.5"/>
<polygon fill="black" stroke="black" points="870.9,-1118 880.9,-1114.5 870.9,-1111 870.9,-1118"/>
<text text-anchor="middle" x="824.98" y="-1117.5" font-family="Times,serif" font-size="10.00"> cxx</text>
</g>
<!-- 0x7fe58d5097b0 -->
<g id="node92" class="node">
<title>0x7fe58d5097b0</title>
<polygon fill="none" stroke="black" points="768.98,-1087 685.98,-1087 685.98,-1068 768.98,-1068 768.98,-1087"/>
<text text-anchor="middle" x="727.48" y="-1075" font-family="Times,serif" font-size="10.00">src/clean_test.cc</text>
</g>
<!-- 0x7fe58d5097b0&#45;&gt;0x7fe58d509710 -->
<g id="edge92" class="edge">
<title>0x7fe58d5097b0&#45;&gt;0x7fe58d509710</title>
<path fill="none" stroke="black" d="M769.2,-1077.5C798.61,-1077.5 838.66,-1077.5 870.78,-1077.5"/>
<polygon fill="black" stroke="black" points="870.9,-1081 880.9,-1077.5 870.9,-1074 870.9,-1081"/>
<text text-anchor="middle" x="824.98" y="-1080.5" font-family="Times,serif" font-size="10.00"> cxx</text>
</g>
<!-- 0x7fe58d5078f0 -->
<g id="node93" class="node">
<title>0x7fe58d5078f0</title>
<polygon fill="none" stroke="black" points="773.98,-1050 680.98,-1050 680.98,-1031 773.98,-1031 773.98,-1050"/>
<text text-anchor="middle" x="727.48" y="-1038" font-family="Times,serif" font-size="10.00">src/clparser_test.cc</text>
</g>
<!-- 0x7fe58d5078f0&#45;&gt;0x7fe58d507850 -->
<g id="edge93" class="edge">
<title>0x7fe58d5078f0&#45;&gt;0x7fe58d507850</title>
<path fill="none" stroke="black" d="M774.06,-1040.5C801.34,-1040.5 836.31,-1040.5 865.72,-1040.5"/>
<polygon fill="black" stroke="black" points="865.87,-1044 875.87,-1040.5 865.87,-1037 865.87,-1044"/>
<text text-anchor="middle" x="824.98" y="-1043.5" font-family="Times,serif" font-size="10.00"> cxx</text>
</g>
<!-- 0x7fe58d509c90 -->
<g id="node94" class="node">
<title>0x7fe58d509c90</title>
<polygon fill="none" stroke="black" points="786.98,-1013 667.98,-1013 667.98,-994 786.98,-994 786.98,-1013"/>
<text text-anchor="middle" x="727.48" y="-1001" font-family="Times,serif" font-size="10.00">src/depfile_parser_test.cc</text>
</g>
<!-- 0x7fe58d509c90&#45;&gt;0x7fe58d509c10 -->
<g id="edge94" class="edge">
<title>0x7fe58d509c90&#45;&gt;0x7fe58d509c10</title>
<path fill="none" stroke="black" d="M787.17,-1003.5C807.87,-1003.5 831.38,-1003.5 853.05,-1003.5"/>
<polygon fill="black" stroke="black" points="853.18,-1007 863.18,-1003.5 853.18,-1000 853.18,-1007"/>
<text text-anchor="middle" x="824.98" y="-1006.5" font-family="Times,serif" font-size="10.00"> cxx</text>
</g>
<!-- 0x7fe58d509e50 -->
<g id="node95" class="node">
<title>0x7fe58d509e50</title>
<polygon fill="none" stroke="black" points="776.98,-976 677.98,-976 677.98,-957 776.98,-957 776.98,-976"/>
<text text-anchor="middle" x="727.48" y="-964" font-family="Times,serif" font-size="10.00">src/deps_log_test.cc</text>
</g>
<!-- 0x7fe58d509e50&#45;&gt;0x7fe58d509df0 -->
<g id="edge95" class="edge">
<title>0x7fe58d509e50&#45;&gt;0x7fe58d509df0</title>
<path fill="none" stroke="black" d="M777.06,-966.5C802.85,-966.5 834.85,-966.5 862.49,-966.5"/>
<polygon fill="black" stroke="black" points="862.84,-970 872.84,-966.5 862.84,-963 862.84,-970"/>
<text text-anchor="middle" x="824.98" y="-969.5" font-family="Times,serif" font-size="10.00"> cxx</text>
</g>
<!-- 0x7fe58d50a040 -->
<g id="node96" class="node">
<title>0x7fe58d50a040</title>
<polygon fill="none" stroke="black" points="788.48,-939 666.48,-939 666.48,-920 788.48,-920 788.48,-939"/>
<text text-anchor="middle" x="727.48" y="-927" font-family="Times,serif" font-size="10.00">src/dyndep_parser_test.cc</text>
</g>
<!-- 0x7fe58d50a040&#45;&gt;0x7fe58d509fe0 -->
<g id="edge96" class="edge">
<title>0x7fe58d50a040&#45;&gt;0x7fe58d509fe0</title>
<path fill="none" stroke="black" d="M788.51,-929.5C808.49,-929.5 830.97,-929.5 851.83,-929.5"/>
<polygon fill="black" stroke="black" points="851.92,-933 861.92,-929.5 851.92,-926 851.92,-933"/>
<text text-anchor="middle" x="824.98" y="-932.5" font-family="Times,serif" font-size="10.00"> cxx</text>
</g>
<!-- 0x7fe58d50a250 -->
<g id="node97" class="node">
<title>0x7fe58d50a250</title>
<polygon fill="none" stroke="black" points="786.98,-902 667.98,-902 667.98,-883 786.98,-883 786.98,-902"/>
<text text-anchor="middle" x="727.48" y="-890" font-family="Times,serif" font-size="10.00">src/disk_interface_test.cc</text>
</g>
<!-- 0x7fe58d50a250&#45;&gt;0x7fe58d50a1b0 -->
<g id="edge97" class="edge">
<title>0x7fe58d50a250&#45;&gt;0x7fe58d50a1b0</title>
<path fill="none" stroke="black" d="M787.17,-892.5C807.77,-892.5 831.16,-892.5 852.74,-892.5"/>
<polygon fill="black" stroke="black" points="852.84,-896 862.84,-892.5 852.84,-889 852.84,-896"/>
<text text-anchor="middle" x="824.98" y="-895.5" font-family="Times,serif" font-size="10.00"> cxx</text>
</g>
<!-- 0x7fe58d50a450 -->
<g id="node98" class="node">
<title>0x7fe58d50a450</title>
<polygon fill="none" stroke="black" points="785.48,-865 669.48,-865 669.48,-846 785.48,-846 785.48,-865"/>
<text text-anchor="middle" x="727.48" y="-853" font-family="Times,serif" font-size="10.00">src/edit_distance_test.cc</text>
</g>
<!-- 0x7fe58d50a450&#45;&gt;0x7fe58d50a3b0 -->
<g id="edge98" class="edge">
<title>0x7fe58d50a450&#45;&gt;0x7fe58d50a3b0</title>
<path fill="none" stroke="black" d="M785.58,-855.5C807,-855.5 831.61,-855.5 854.13,-855.5"/>
<polygon fill="black" stroke="black" points="854.31,-859 864.31,-855.5 854.31,-852 854.31,-859"/>
<text text-anchor="middle" x="824.98" y="-858.5" font-family="Times,serif" font-size="10.00"> cxx</text>
</g>
<!-- 0x7fe58d50a610 -->
<g id="node99" class="node">
<title>0x7fe58d50a610</title>
<polygon fill="none" stroke="black" points="769.98,-828 684.98,-828 684.98,-809 769.98,-809 769.98,-828"/>
<text text-anchor="middle" x="727.48" y="-816" font-family="Times,serif" font-size="10.00">src/graph_test.cc</text>
</g>
<!-- 0x7fe58d50a610&#45;&gt;0x7fe58d50a5b0 -->
<g id="edge99" class="edge">
<title>0x7fe58d50a610&#45;&gt;0x7fe58d50a5b0</title>
<path fill="none" stroke="black" d="M770.16,-818.5C799.1,-818.5 837.99,-818.5 869.55,-818.5"/>
<polygon fill="black" stroke="black" points="869.95,-822 879.95,-818.5 869.95,-815 869.95,-822"/>
<text text-anchor="middle" x="824.98" y="-821.5" font-family="Times,serif" font-size="10.00"> cxx</text>
</g>
<!-- 0x7fe58d50a7b0 -->
<g id="node100" class="node">
<title>0x7fe58d50a7b0</title>
<polygon fill="none" stroke="black" points="768.48,-791 686.48,-791 686.48,-772 768.48,-772 768.48,-791"/>
<text text-anchor="middle" x="727.48" y="-779" font-family="Times,serif" font-size="10.00">src/lexer_test.cc</text>
</g>
<!-- 0x7fe58d50a7b0&#45;&gt;0x7fe58d50a710 -->
<g id="edge100" class="edge">
<title>0x7fe58d50a7b0&#45;&gt;0x7fe58d50a710</title>
<path fill="none" stroke="black" d="M768.72,-781.5C798.31,-781.5 838.82,-781.5 871.19,-781.5"/>
<polygon fill="black" stroke="black" points="871.38,-785 881.38,-781.5 871.38,-778 871.38,-785"/>
<text text-anchor="middle" x="824.98" y="-784.5" font-family="Times,serif" font-size="10.00"> cxx</text>
</g>
<!-- 0x7fe58d50a9f0 -->
<g id="node101" class="node">
<title>0x7fe58d50a9f0</title>
<polygon fill="none" stroke="black" points="789.98,-754 664.98,-754 664.98,-735 789.98,-735 789.98,-754"/>
<text text-anchor="middle" x="727.48" y="-742" font-family="Times,serif" font-size="10.00">src/manifest_parser_test.cc</text>
</g>
<!-- 0x7fe58d50a9f0&#45;&gt;0x7fe58d50a970 -->
<g id="edge101" class="edge">
<title>0x7fe58d50a9f0&#45;&gt;0x7fe58d50a970</title>
<path fill="none" stroke="black" d="M790.12,-744.5C809,-744.5 829.99,-744.5 849.67,-744.5"/>
<polygon fill="black" stroke="black" points="849.83,-748 859.83,-744.5 849.83,-741 849.83,-748"/>
<text text-anchor="middle" x="824.98" y="-747.5" font-family="Times,serif" font-size="10.00"> cxx</text>
</g>
<!-- 0x7fe58d50ab70 -->
<g id="node102" class="node">
<title>0x7fe58d50ab70</title>
<polygon fill="none" stroke="black" points="768.98,-717 685.98,-717 685.98,-698 768.98,-698 768.98,-717"/>
<text text-anchor="middle" x="727.48" y="-705" font-family="Times,serif" font-size="10.00">src/ninja_test.cc</text>
</g>
<!-- 0x7fe58d50ab70&#45;&gt;0x7fe58d50ab10 -->
<g id="edge102" class="edge">
<title>0x7fe58d50ab70&#45;&gt;0x7fe58d50ab10</title>
<path fill="none" stroke="black" d="M769.2,-707.5C798.72,-707.5 838.93,-707.5 871.11,-707.5"/>
<polygon fill="black" stroke="black" points="871.25,-711 881.25,-707.5 871.25,-704 871.25,-711"/>
<text text-anchor="middle" x="824.98" y="-710.5" font-family="Times,serif" font-size="10.00"> cxx</text>
</g>
<!-- 0x7fe58d50ad30 -->
<g id="node103" class="node">
<title>0x7fe58d50ad30</title>
<polygon fill="none" stroke="black" points="767.48,-680 687.48,-680 687.48,-661 767.48,-661 767.48,-680"/>
<text text-anchor="middle" x="727.48" y="-668" font-family="Times,serif" font-size="10.00">src/state_test.cc</text>
</g>
<!-- 0x7fe58d50ad30&#45;&gt;0x7fe58d50ac90 -->
<g id="edge103" class="edge">
<title>0x7fe58d50ad30&#45;&gt;0x7fe58d50ac90</title>
<path fill="none" stroke="black" d="M767.78,-670.5C797.69,-670.5 839.18,-670.5 872.02,-670.5"/>
<polygon fill="black" stroke="black" points="872.35,-674 882.35,-670.5 872.35,-667 872.35,-674"/>
<text text-anchor="middle" x="824.98" y="-673.5" font-family="Times,serif" font-size="10.00"> cxx</text>
</g>
<!-- 0x7fe58d50af70 -->
<g id="node104" class="node">
<title>0x7fe58d50af70</title>
<polygon fill="none" stroke="black" points="792.98,-643 661.98,-643 661.98,-624 792.98,-624 792.98,-643"/>
<text text-anchor="middle" x="727.48" y="-631" font-family="Times,serif" font-size="10.00">src/string_piece_util_test.cc</text>
</g>
<!-- 0x7fe58d50af70&#45;&gt;0x7fe58d50aef0 -->
<g id="edge104" class="edge">
<title>0x7fe58d50af70&#45;&gt;0x7fe58d50aef0</title>
<path fill="none" stroke="black" d="M793.1,-633.5C810.21,-633.5 828.87,-633.5 846.62,-633.5"/>
<polygon fill="black" stroke="black" points="846.95,-637 856.95,-633.5 846.95,-630 846.95,-637"/>
<text text-anchor="middle" x="824.98" y="-636.5" font-family="Times,serif" font-size="10.00"> cxx</text>
</g>
<!-- 0x7fe58d50b150 -->
<g id="node105" class="node">
<title>0x7fe58d50b150</title>
<polygon fill="none" stroke="black" points="780.48,-1272 674.48,-1272 674.48,-1253 780.48,-1253 780.48,-1272"/>
<text text-anchor="middle" x="727.48" y="-1260" font-family="Times,serif" font-size="10.00">src/subprocess_test.cc</text>
</g>
<!-- 0x7fe58d50b150&#45;&gt;0x7fe58d50b0d0 -->
<g id="edge105" class="edge">
<title>0x7fe58d50b150&#45;&gt;0x7fe58d50b0d0</title>
<path fill="none" stroke="black" d="M780.63,-1262.5C804.61,-1262.5 833.33,-1262.5 858.82,-1262.5"/>
<polygon fill="black" stroke="black" points="859.15,-1266 869.15,-1262.5 859.15,-1259 859.15,-1266"/>
<text text-anchor="middle" x="824.98" y="-1265.5" font-family="Times,serif" font-size="10.00"> cxx</text>
</g>
<!-- 0x7fe58d50b2f0 -->
<g id="node106" class="node">
<title>0x7fe58d50b2f0</title>
<polygon fill="none" stroke="black" points="755.48,-1235 699.48,-1235 699.48,-1216 755.48,-1216 755.48,-1235"/>
<text text-anchor="middle" x="727.48" y="-1223" font-family="Times,serif" font-size="10.00">src/test.cc</text>
</g>
<!-- 0x7fe58d50b2f0&#45;&gt;0x7fe58d50b290 -->
<g id="edge106" class="edge">
<title>0x7fe58d50b2f0&#45;&gt;0x7fe58d50b290</title>
<path fill="none" stroke="black" d="M755.81,-1225.5C789.06,-1225.5 845.53,-1225.5 884,-1225.5"/>
<polygon fill="black" stroke="black" points="884.34,-1229 894.34,-1225.5 884.34,-1222 884.34,-1229"/>
<text text-anchor="middle" x="824.98" y="-1228.5" font-family="Times,serif" font-size="10.00"> cxx</text>
</g>
<!-- 0x7fe58d50b490 -->
<g id="node107" class="node">
<title>0x7fe58d50b490</title>
<polygon fill="none" stroke="black" points="765.48,-1198 689.48,-1198 689.48,-1179 765.48,-1179 765.48,-1198"/>
<text text-anchor="middle" x="727.48" y="-1186" font-family="Times,serif" font-size="10.00">src/util_test.cc</text>
</g>
<!-- 0x7fe58d50b490&#45;&gt;0x7fe58d50b3f0 -->
<g id="edge107" class="edge">
<title>0x7fe58d50b490&#45;&gt;0x7fe58d50b3f0</title>
<path fill="none" stroke="black" d="M765.91,-1188.5C796.58,-1188.5 840.31,-1188.5 874.15,-1188.5"/>
<polygon fill="black" stroke="black" points="874.31,-1192 884.31,-1188.5 874.31,-1185 874.31,-1192"/>
<text text-anchor="middle" x="824.98" y="-1191.5" font-family="Times,serif" font-size="10.00"> cxx</text>
</g>
<!-- 0x7fe58d50bba0&#45;&gt;0x7fe58d50bc10 -->
<g id="edge108" class="edge">
<title>0x7fe58d50bba0&#45;&gt;0x7fe58d50bc10</title>
<path fill="none" stroke="black" d="M1091.02,-530.42C1102.34,-529.94 1116.06,-529.37 1129.47,-528.81"/>
<polygon fill="black" stroke="black" points="1129.78,-532.3 1139.63,-528.39 1129.49,-525.31 1129.78,-532.3"/>
</g>
<!-- 0x7fe58d50b990 -->
<g id="node109" class="node">
<title>0x7fe58d50b990</title>
<polygon fill="none" stroke="black" points="988.48,-569 863.48,-569 863.48,-550 988.48,-550 988.48,-569"/>
<text text-anchor="middle" x="925.98" y="-557" font-family="Times,serif" font-size="10.00">build/build_log_perftest.o</text>
</g>
<!-- 0x7fe58d50b990&#45;&gt;0x7fe58d50bba0 -->
<g id="edge109" class="edge">
<title>0x7fe58d50b990&#45;&gt;0x7fe58d50bba0</title>
<path fill="none" stroke="black" d="M973.41,-549.94C995.26,-545.44 1020.43,-540.26 1038.51,-536.54"/>
</g>
<!-- 0x7fe58d50ba20 -->
<g id="node110" class="node">
<title>0x7fe58d50ba20</title>
<polygon fill="none" stroke="black" points="786.48,-569 668.48,-569 668.48,-550 786.48,-550 786.48,-569"/>
<text text-anchor="middle" x="727.48" y="-557" font-family="Times,serif" font-size="10.00">src/build_log_perftest.cc</text>
</g>
<!-- 0x7fe58d50ba20&#45;&gt;0x7fe58d50b990 -->
<g id="edge111" class="edge">
<title>0x7fe58d50ba20&#45;&gt;0x7fe58d50b990</title>
<path fill="none" stroke="black" d="M786.64,-559.5C807.45,-559.5 831.16,-559.5 852.99,-559.5"/>
<polygon fill="black" stroke="black" points="853.21,-563 863.21,-559.5 853.21,-556 853.21,-563"/>
<text text-anchor="middle" x="824.98" y="-562.5" font-family="Times,serif" font-size="10.00"> cxx</text>
</g>
<!-- 0x7fe58d5087b0&#45;&gt;0x7fe58d508820 -->
<g id="edge112" class="edge">
<title>0x7fe58d5087b0&#45;&gt;0x7fe58d508820</title>
<path fill="none" stroke="black" d="M1091.02,-486.07C1104.48,-485.84 1121.34,-485.56 1137.04,-485.3"/>
<polygon fill="black" stroke="black" points="1137.21,-488.8 1147.15,-485.13 1137.09,-481.8 1137.21,-488.8"/>
</g>
<!-- 0x7fe58d50bd20 -->
<g id="node112" class="node">
<title>0x7fe58d50bd20</title>
<polygon fill="none" stroke="black" points="980.48,-526 871.48,-526 871.48,-507 980.48,-507 980.48,-526"/>
<text text-anchor="middle" x="925.98" y="-514" font-family="Times,serif" font-size="10.00">build/canon_perftest.o</text>
</g>
<!-- 0x7fe58d50bd20&#45;&gt;0x7fe58d5087b0 -->
<g id="edge113" class="edge">
<title>0x7fe58d50bd20&#45;&gt;0x7fe58d5087b0</title>
<path fill="none" stroke="black" d="M970.39,-506.93C993.09,-501.92 1020.01,-495.98 1038.96,-491.8"/>
</g>
<!-- 0x7fe58d508660 -->
<g id="node113" class="node">
<title>0x7fe58d508660</title>
<polygon fill="none" stroke="black" points="778.48,-526 676.48,-526 676.48,-507 778.48,-507 778.48,-526"/>
<text text-anchor="middle" x="727.48" y="-514" font-family="Times,serif" font-size="10.00">src/canon_perftest.cc</text>
</g>
<!-- 0x7fe58d508660&#45;&gt;0x7fe58d50bd20 -->
<g id="edge115" class="edge">
<title>0x7fe58d508660&#45;&gt;0x7fe58d50bd20</title>
<path fill="none" stroke="black" d="M778.58,-516.5C803.68,-516.5 834.36,-516.5 861.14,-516.5"/>
<polygon fill="black" stroke="black" points="861.19,-520 871.19,-516.5 861.19,-513 861.19,-520"/>
<text text-anchor="middle" x="824.98" y="-519.5" font-family="Times,serif" font-size="10.00"> cxx</text>
</g>
<!-- 0x7fe58d50c030&#45;&gt;0x7fe58d50c0a0 -->
<g id="edge116" class="edge">
<title>0x7fe58d50c030&#45;&gt;0x7fe58d50c0a0</title>
<path fill="none" stroke="black" d="M1090.43,-354.26C1099.6,-355.25 1110.39,-356.42 1121.35,-357.61"/>
<polygon fill="black" stroke="black" points="1121.1,-361.1 1131.42,-358.7 1121.86,-354.14 1121.1,-361.1"/>
</g>
<!-- 0x7fe58d50bdf0 -->
<g id="node115" class="node">
<title>0x7fe58d50bdf0</title>
<polygon fill="none" stroke="black" points="996.48,-304 855.48,-304 855.48,-285 996.48,-285 996.48,-304"/>
<text text-anchor="middle" x="925.98" y="-292" font-family="Times,serif" font-size="10.00">build/depfile_parser_perftest.o</text>
</g>
<!-- 0x7fe58d50bdf0&#45;&gt;0x7fe58d50c030 -->
<g id="edge117" class="edge">
<title>0x7fe58d50bdf0&#45;&gt;0x7fe58d50c030</title>
<path fill="none" stroke="black" d="M951.75,-304.05C965.93,-309.6 984.02,-316.78 999.98,-323.5 1014.66,-329.67 1031.09,-336.99 1043.49,-342.59"/>
</g>
<!-- 0x7fe58d50be70 -->
<g id="node116" class="node">
<title>0x7fe58d50be70</title>
<polygon fill="none" stroke="black" points="794.48,-304 660.48,-304 660.48,-285 794.48,-285 794.48,-304"/>
<text text-anchor="middle" x="727.48" y="-292" font-family="Times,serif" font-size="10.00">src/depfile_parser_perftest.cc</text>
</g>
<!-- 0x7fe58d50be70&#45;&gt;0x7fe58d50bdf0 -->
<g id="edge119" class="edge">
<title>0x7fe58d50be70&#45;&gt;0x7fe58d50bdf0</title>
<path fill="none" stroke="black" d="M794.73,-294.5C810.88,-294.5 828.32,-294.5 845.03,-294.5"/>
<polygon fill="black" stroke="black" points="845.32,-298 855.32,-294.5 845.32,-291 845.32,-298"/>
<text text-anchor="middle" x="824.98" y="-297.5" font-family="Times,serif" font-size="10.00"> cxx</text>
</g>
<!-- 0x7fe58d50c400&#45;&gt;0x7fe58d50c470 -->
<g id="edge120" class="edge">
<title>0x7fe58d50c400&#45;&gt;0x7fe58d50c470</title>
<path fill="none" stroke="black" d="M1091.02,-442.37C1100.31,-442.68 1111.22,-443.04 1122.25,-443.41"/>
<polygon fill="black" stroke="black" points="1122.26,-446.91 1132.37,-443.75 1122.49,-439.91 1122.26,-446.91"/>
</g>
<!-- 0x7fe58d50c270 -->
<g id="node118" class="node">
<title>0x7fe58d50c270</title>
<polygon fill="none" stroke="black" points="995.48,-401 856.48,-401 856.48,-382 995.48,-382 995.48,-401"/>
<text text-anchor="middle" x="925.98" y="-389" font-family="Times,serif" font-size="10.00">build/hash_collision_bench.o</text>
</g>
<!-- 0x7fe58d50c270&#45;&gt;0x7fe58d50c400 -->
<g id="edge121" class="edge">
<title>0x7fe58d50c270&#45;&gt;0x7fe58d50c400</title>
<path fill="none" stroke="black" d="M952.88,-401.02C978.62,-410.49 1017.63,-424.83 1041.65,-433.66"/>
</g>
<!-- 0x7fe58d50c2d0 -->
<g id="node119" class="node">
<title>0x7fe58d50c2d0</title>
<polygon fill="none" stroke="black" points="793.48,-401 661.48,-401 661.48,-382 793.48,-382 793.48,-401"/>
<text text-anchor="middle" x="727.48" y="-389" font-family="Times,serif" font-size="10.00">src/hash_collision_bench.cc</text>
</g>
<!-- 0x7fe58d50c2d0&#45;&gt;0x7fe58d50c270 -->
<g id="edge123" class="edge">
<title>0x7fe58d50c2d0&#45;&gt;0x7fe58d50c270</title>
<path fill="none" stroke="black" d="M793.64,-391.5C810.45,-391.5 828.72,-391.5 846.15,-391.5"/>
<polygon fill="black" stroke="black" points="846.29,-395 856.29,-391.5 846.29,-388 846.29,-395"/>
<text text-anchor="middle" x="824.98" y="-394.5" font-family="Times,serif" font-size="10.00"> cxx</text>
</g>
<!-- 0x7fe58d50c810&#45;&gt;0x7fe58d50c880 -->
<g id="edge124" class="edge">
<title>0x7fe58d50c810&#45;&gt;0x7fe58d50c880</title>
<path fill="none" stroke="black" d="M1090.14,-310.27C1098.39,-311.51 1107.98,-312.95 1117.83,-314.43"/>
<polygon fill="black" stroke="black" points="1117.32,-317.89 1127.73,-315.91 1118.36,-310.97 1117.32,-317.89"/>
</g>
<!-- 0x7fe58d50c5e0 -->
<g id="node121" class="node">
<title>0x7fe58d50c5e0</title>
<polygon fill="none" stroke="black" points="999.98,-267 851.98,-267 851.98,-248 999.98,-248 999.98,-267"/>
<text text-anchor="middle" x="925.98" y="-255" font-family="Times,serif" font-size="10.00">build/manifest_parser_perftest.o</text>
</g>
<!-- 0x7fe58d50c5e0&#45;&gt;0x7fe58d50c810 -->
<g id="edge125" class="edge">
<title>0x7fe58d50c5e0&#45;&gt;0x7fe58d50c810</title>
<path fill="none" stroke="black" d="M986.38,-267.04C997.45,-269.76 1008.74,-273.19 1018.98,-277.5 1029.61,-281.97 1040.43,-289.07 1048.69,-295.12"/>
</g>
<!-- 0x7fe58d50c670 -->
<g id="node122" class="node">
<title>0x7fe58d50c670</title>
<polygon fill="none" stroke="black" points="797.98,-267 656.98,-267 656.98,-248 797.98,-248 797.98,-267"/>
<text text-anchor="middle" x="727.48" y="-255" font-family="Times,serif" font-size="10.00">src/manifest_parser_perftest.cc</text>
</g>
<!-- 0x7fe58d50c670&#45;&gt;0x7fe58d50c5e0 -->
<g id="edge127" class="edge">
<title>0x7fe58d50c670&#45;&gt;0x7fe58d50c5e0</title>
<path fill="none" stroke="black" d="M798.04,-257.5C812.21,-257.5 827.26,-257.5 841.85,-257.5"/>
<polygon fill="black" stroke="black" points="841.86,-261 851.86,-257.5 841.86,-254 841.86,-261"/>
<text text-anchor="middle" x="824.98" y="-260.5" font-family="Times,serif" font-size="10.00"> cxx</text>
</g>
<!-- 0x7fe58d50cba0&#45;&gt;0x7fe58d50cc10 -->
<g id="edge128" class="edge">
<title>0x7fe58d50cba0&#45;&gt;0x7fe58d50cc10</title>
<path fill="none" stroke="black" d="M1090.73,-398.65C1103.37,-399.7 1119.07,-401.01 1134.01,-402.25"/>
<polygon fill="black" stroke="black" points="1133.92,-405.76 1144.18,-403.1 1134.5,-398.78 1133.92,-405.76"/>
</g>
<!-- 0x7fe58d50c9c0 -->
<g id="node124" class="node">
<title>0x7fe58d50c9c0</title>
<polygon fill="none" stroke="black" points="983.98,-351 867.98,-351 867.98,-332 983.98,-332 983.98,-351"/>
<text text-anchor="middle" x="925.98" y="-339" font-family="Times,serif" font-size="10.00">build/clparser_perftest.o</text>
</g>
<!-- 0x7fe58d50c9c0&#45;&gt;0x7fe58d50cba0 -->
<g id="edge129" class="edge">
<title>0x7fe58d50c9c0&#45;&gt;0x7fe58d50cba0</title>
<path fill="none" stroke="black" d="M950.67,-351.08C976.55,-361.54 1017.58,-378.14 1042.23,-388.11"/>
</g>
<!-- 0x7fe58d50ca20 -->
<g id="node125" class="node">
<title>0x7fe58d50ca20</title>
<polygon fill="none" stroke="black" points="781.98,-351 672.98,-351 672.98,-332 781.98,-332 781.98,-351"/>
<text text-anchor="middle" x="727.48" y="-339" font-family="Times,serif" font-size="10.00">src/clparser_perftest.cc</text>
</g>
<!-- 0x7fe58d50ca20&#45;&gt;0x7fe58d50c9c0 -->
<g id="edge131" class="edge">
<title>0x7fe58d50ca20&#45;&gt;0x7fe58d50c9c0</title>
<path fill="none" stroke="black" d="M782.18,-341.5C805.55,-341.5 833.18,-341.5 857.89,-341.5"/>
<polygon fill="black" stroke="black" points="857.92,-345 867.92,-341.5 857.92,-338 857.92,-345"/>
<text text-anchor="middle" x="824.98" y="-344.5" font-family="Times,serif" font-size="10.00"> cxx</text>
</g>
</g>
</svg>
